%!PS-Adobe-2.0 EPSF-2.0
%%Title: arpasc-battere.eps
%%Creator: fig2dev Version 3.2 Patchlevel 0-beta3
%%CreationDate: Sun May 24 20:23:03 1998
%%For: nicb@ax-nicb.axnet.it (Nicola Bernardini)
%%Orientation: Portrait
%%BoundingBox: 0 0 18 38
%%Pages: 0
%%BeginSetup
%%EndSetup
%%Magnification: 1.0000
%%EndComments
/$F2psDict 200 dict def
$F2psDict begin
$F2psDict /mtrx matrix put
/col-1 {0 setgray} bind def
/col0 {0.000 0.000 0.000 srgb} bind def
/col1 {0.000 0.000 1.000 srgb} bind def
/col2 {0.000 1.000 0.000 srgb} bind def
/col3 {0.000 1.000 1.000 srgb} bind def
/col4 {1.000 0.000 0.000 srgb} bind def
/col5 {1.000 0.000 1.000 srgb} bind def
/col6 {1.000 1.000 0.000 srgb} bind def
/col7 {1.000 1.000 1.000 srgb} bind def
/col8 {0.000 0.000 0.560 srgb} bind def
/col9 {0.000 0.000 0.690 srgb} bind def
/col10 {0.000 0.000 0.820 srgb} bind def
/col11 {0.530 0.810 1.000 srgb} bind def
/col12 {0.000 0.560 0.000 srgb} bind def
/col13 {0.000 0.690 0.000 srgb} bind def
/col14 {0.000 0.820 0.000 srgb} bind def
/col15 {0.000 0.560 0.560 srgb} bind def
/col16 {0.000 0.690 0.690 srgb} bind def
/col17 {0.000 0.820 0.820 srgb} bind def
/col18 {0.560 0.000 0.000 srgb} bind def
/col19 {0.690 0.000 0.000 srgb} bind def
/col20 {0.820 0.000 0.000 srgb} bind def
/col21 {0.560 0.000 0.560 srgb} bind def
/col22 {0.690 0.000 0.690 srgb} bind def
/col23 {0.820 0.000 0.820 srgb} bind def
/col24 {0.500 0.190 0.000 srgb} bind def
/col25 {0.630 0.250 0.000 srgb} bind def
/col26 {0.750 0.380 0.000 srgb} bind def
/col27 {1.000 0.500 0.500 srgb} bind def
/col28 {1.000 0.630 0.630 srgb} bind def
/col29 {1.000 0.750 0.750 srgb} bind def
/col30 {1.000 0.880 0.880 srgb} bind def
/col31 {1.000 0.840 0.000 srgb} bind def

end
save
-26.0 50.0 translate
1 -1 scale

/cp {closepath} bind def
/ef {eofill} bind def
/gr {grestore} bind def
/gs {gsave} bind def
/sa {save} bind def
/rs {restore} bind def
/l {lineto} bind def
/m {moveto} bind def
/rm {rmoveto} bind def
/n {newpath} bind def
/s {stroke} bind def
/sh {show} bind def
/slc {setlinecap} bind def
/slj {setlinejoin} bind def
/slw {setlinewidth} bind def
/srgb {setrgbcolor} bind def
/rot {rotate} bind def
/sc {scale} bind def
/sd {setdash} bind def
/ff {findfont} bind def
/sf {setfont} bind def
/scf {scalefont} bind def
/sw {stringwidth} bind def
/tr {translate} bind def
/tnt {dup dup currentrgbcolor
  4 -2 roll dup 1 exch sub 3 -1 roll mul add
  4 -2 roll dup 1 exch sub 3 -1 roll mul add
  4 -2 roll dup 1 exch sub 3 -1 roll mul add srgb}
  bind def
/shd {dup dup currentrgbcolor 4 -2 roll mul 4 -2 roll mul
  4 -2 roll mul srgb} bind def
/$F2psBegin {$F2psDict begin /$F2psEnteredState save def} def
/$F2psEnd {$F2psEnteredState restore end} def
%%EndProlog

$F2psBegin
10 setmiterlimit
n -1000 1780 m -1000 -1000 l 1686 -1000 l 1686 1780 l cp clip
 0.06299 0.06299 sc
% Polyline
7.500 slw
gs  clippath
404 303 m 451 220 l 504 299 l 500 193 l 400 197 l cp
clip
n 674 764 m 673 764 l 670 764 l 663 764 l 652 764 l 638 764 l
 624 764 l 610 764 l 597 764 l 585 764 l 574 764 l
 562 764 l 550 764 l 536 765 l 522 766 l 507 767 l
 492 767 l 478 768 l 467 767 l 457 766 l 451 764 l
 447 758 l 451 749 l 461 739 l 470 728 l 476 718 l
 477 709 l 474 702 l 468 696 l 460 690 l 450 684 l
 441 678 l 433 672 l 428 665 l 426 658 l 428 651 l
 433 643 l 441 635 l 452 626 l 462 618 l 470 610 l
 475 602 l 477 594 l 475 586 l 470 579 l 462 571 l
 452 564 l 441 557 l 433 550 l 428 542 l 426 535 l
 428 528 l 433 521 l 441 514 l 452 507 l 462 500 l
 470 493 l 475 486 l 477 479 l 475 472 l 470 466 l
 462 460 l 452 454 l 441 447 l 433 441 l 428 435 l
 426 428 l 428 421 l 433 414 l 441 406 l 452 399 l
 462 391 l 470 383 l 475 376 l 477 369 l 475 362 l
 470 356 l 462 349 l 453 343 l 443 336 l 435 330 l
 429 324 l 426 318 l 426 311 l 430 305 l 436 299 l
 443 294 l 448 287 l 451 279 l 452 272 l 453 262 l
 453 250 l 452 237 l 451 210 l gs col0 s gr gr

% arrowhead
n 404 303 m 451 220 l 504 299 l  col0 s
$F2psEnd
rs
