%!PS-Adobe-2.0 EPSF-2.0
%%Title: arpasc-levare.eps
%%Creator: fig2dev Version 3.2 Patchlevel 0-beta3
%%CreationDate: Sun May 24 20:15:37 1998
%%For: nicb@ax-nicb.axnet.it (Nicola Bernardini)
%%Orientation: Portrait
%%BoundingBox: 0 0 18 38
%%Pages: 0
%%BeginSetup
%%EndSetup
%%Magnification: 1.0000
%%EndComments
/$F2psDict 200 dict def
$F2psDict begin
$F2psDict /mtrx matrix put
/col-1 {0 setgray} bind def
/col0 {0.000 0.000 0.000 srgb} bind def
/col1 {0.000 0.000 1.000 srgb} bind def
/col2 {0.000 1.000 0.000 srgb} bind def
/col3 {0.000 1.000 1.000 srgb} bind def
/col4 {1.000 0.000 0.000 srgb} bind def
/col5 {1.000 0.000 1.000 srgb} bind def
/col6 {1.000 1.000 0.000 srgb} bind def
/col7 {1.000 1.000 1.000 srgb} bind def
/col8 {0.000 0.000 0.560 srgb} bind def
/col9 {0.000 0.000 0.690 srgb} bind def
/col10 {0.000 0.000 0.820 srgb} bind def
/col11 {0.530 0.810 1.000 srgb} bind def
/col12 {0.000 0.560 0.000 srgb} bind def
/col13 {0.000 0.690 0.000 srgb} bind def
/col14 {0.000 0.820 0.000 srgb} bind def
/col15 {0.000 0.560 0.560 srgb} bind def
/col16 {0.000 0.690 0.690 srgb} bind def
/col17 {0.000 0.820 0.820 srgb} bind def
/col18 {0.560 0.000 0.000 srgb} bind def
/col19 {0.690 0.000 0.000 srgb} bind def
/col20 {0.820 0.000 0.000 srgb} bind def
/col21 {0.560 0.000 0.560 srgb} bind def
/col22 {0.690 0.000 0.690 srgb} bind def
/col23 {0.820 0.000 0.820 srgb} bind def
/col24 {0.500 0.190 0.000 srgb} bind def
/col25 {0.630 0.250 0.000 srgb} bind def
/col26 {0.750 0.380 0.000 srgb} bind def
/col27 {1.000 0.500 0.500 srgb} bind def
/col28 {1.000 0.630 0.630 srgb} bind def
/col29 {1.000 0.750 0.750 srgb} bind def
/col30 {1.000 0.880 0.880 srgb} bind def
/col31 {1.000 0.840 0.000 srgb} bind def

end
save
-13.0 50.0 translate
1 -1 scale

/cp {closepath} bind def
/ef {eofill} bind def
/gr {grestore} bind def
/gs {gsave} bind def
/sa {save} bind def
/rs {restore} bind def
/l {lineto} bind def
/m {moveto} bind def
/rm {rmoveto} bind def
/n {newpath} bind def
/s {stroke} bind def
/sh {show} bind def
/slc {setlinecap} bind def
/slj {setlinejoin} bind def
/slw {setlinewidth} bind def
/srgb {setrgbcolor} bind def
/rot {rotate} bind def
/sc {scale} bind def
/sd {setdash} bind def
/ff {findfont} bind def
/sf {setfont} bind def
/scf {scalefont} bind def
/sw {stringwidth} bind def
/tr {translate} bind def
/tnt {dup dup currentrgbcolor
  4 -2 roll dup 1 exch sub 3 -1 roll mul add
  4 -2 roll dup 1 exch sub 3 -1 roll mul add
  4 -2 roll dup 1 exch sub 3 -1 roll mul add srgb}
  bind def
/shd {dup dup currentrgbcolor 4 -2 roll mul 4 -2 roll mul
  4 -2 roll mul srgb} bind def
/$F2psBegin {$F2psDict begin /$F2psEnteredState save def} def
/$F2psEnd {$F2psEnteredState restore end} def
%%EndProlog

$F2psBegin
10 setmiterlimit
n -1000 1780 m -1000 -1000 l 1486 -1000 l 1486 1780 l cp clip
 0.06299 0.06299 sc
% Polyline
7.500 slw
gs  clippath
396 299 m 448 220 l 496 303 l 500 197 l 400 193 l cp
clip
n 226 764 m 227 764 l 230 764 l 237 764 l 248 764 l 262 764 l
 276 764 l 290 764 l 303 764 l 315 764 l 326 764 l
 338 764 l 350 764 l 364 765 l 378 766 l 393 767 l
 408 767 l 422 768 l 433 767 l 443 766 l 449 764 l
 453 758 l 449 749 l 439 739 l 430 728 l 424 718 l
 423 709 l 426 702 l 432 696 l 440 690 l 450 684 l
 459 678 l 467 672 l 472 665 l 474 658 l 472 651 l
 467 643 l 459 635 l 449 626 l 438 618 l 430 610 l
 425 602 l 423 594 l 425 586 l 430 579 l 438 571 l
 449 564 l 459 557 l 467 550 l 472 542 l 474 535 l
 472 528 l 467 521 l 459 514 l 449 507 l 438 500 l
 430 493 l 425 486 l 423 479 l 425 472 l 430 466 l
 438 460 l 449 454 l 459 447 l 467 441 l 472 435 l
 474 428 l 472 421 l 467 414 l 459 406 l 449 399 l
 438 391 l 430 383 l 425 376 l 423 369 l 425 362 l
 430 356 l 438 349 l 447 343 l 457 336 l 465 330 l
 471 324 l 474 318 l 474 311 l 470 305 l 464 299 l
 457 294 l 452 287 l 449 279 l 448 272 l 447 262 l
 447 250 l 448 237 l 449 210 l gs col0 s gr gr

% arrowhead
n 396 299 m 448 220 l 496 303 l  col0 s
$F2psEnd
rs
