%!PS-Adobe-2.0 EPSF-2.0
%%Title: arpdis-levare.eps
%%Creator: fig2dev Version 3.2 Patchlevel 0-beta3
%%CreationDate: Sun May 24 20:07:39 1998
%%For: nicb@ax-nicb.axnet.it (Nicola Bernardini)
%%Orientation: Portrait
%%BoundingBox: 0 0 18 37
%%Pages: 0
%%BeginSetup
%%EndSetup
%%Magnification: 1.0000
%%EndComments
/$F2psDict 200 dict def
$F2psDict begin
$F2psDict /mtrx matrix put
/col-1 {0 setgray} bind def
/col0 {0.000 0.000 0.000 srgb} bind def
/col1 {0.000 0.000 1.000 srgb} bind def
/col2 {0.000 1.000 0.000 srgb} bind def
/col3 {0.000 1.000 1.000 srgb} bind def
/col4 {1.000 0.000 0.000 srgb} bind def
/col5 {1.000 0.000 1.000 srgb} bind def
/col6 {1.000 1.000 0.000 srgb} bind def
/col7 {1.000 1.000 1.000 srgb} bind def
/col8 {0.000 0.000 0.560 srgb} bind def
/col9 {0.000 0.000 0.690 srgb} bind def
/col10 {0.000 0.000 0.820 srgb} bind def
/col11 {0.530 0.810 1.000 srgb} bind def
/col12 {0.000 0.560 0.000 srgb} bind def
/col13 {0.000 0.690 0.000 srgb} bind def
/col14 {0.000 0.820 0.000 srgb} bind def
/col15 {0.000 0.560 0.560 srgb} bind def
/col16 {0.000 0.690 0.690 srgb} bind def
/col17 {0.000 0.820 0.820 srgb} bind def
/col18 {0.560 0.000 0.000 srgb} bind def
/col19 {0.690 0.000 0.000 srgb} bind def
/col20 {0.820 0.000 0.000 srgb} bind def
/col21 {0.560 0.000 0.560 srgb} bind def
/col22 {0.690 0.000 0.690 srgb} bind def
/col23 {0.820 0.000 0.820 srgb} bind def
/col24 {0.500 0.190 0.000 srgb} bind def
/col25 {0.630 0.250 0.000 srgb} bind def
/col26 {0.750 0.380 0.000 srgb} bind def
/col27 {1.000 0.500 0.500 srgb} bind def
/col28 {1.000 0.630 0.630 srgb} bind def
/col29 {1.000 0.750 0.750 srgb} bind def
/col30 {1.000 0.880 0.880 srgb} bind def
/col31 {1.000 0.840 0.000 srgb} bind def

end
save
-13.0 50.0 translate
1 -1 scale

/cp {closepath} bind def
/ef {eofill} bind def
/gr {grestore} bind def
/gs {gsave} bind def
/sa {save} bind def
/rs {restore} bind def
/l {lineto} bind def
/m {moveto} bind def
/rm {rmoveto} bind def
/n {newpath} bind def
/s {stroke} bind def
/sh {show} bind def
/slc {setlinecap} bind def
/slj {setlinejoin} bind def
/slw {setlinewidth} bind def
/srgb {setrgbcolor} bind def
/rot {rotate} bind def
/sc {scale} bind def
/sd {setdash} bind def
/ff {findfont} bind def
/sf {setfont} bind def
/scf {scalefont} bind def
/sw {stringwidth} bind def
/tr {translate} bind def
/tnt {dup dup currentrgbcolor
  4 -2 roll dup 1 exch sub 3 -1 roll mul add
  4 -2 roll dup 1 exch sub 3 -1 roll mul add
  4 -2 roll dup 1 exch sub 3 -1 roll mul add srgb}
  bind def
/shd {dup dup currentrgbcolor 4 -2 roll mul 4 -2 roll mul
  4 -2 roll mul srgb} bind def
/$F2psBegin {$F2psDict begin /$F2psEnteredState save def} def
/$F2psEnd {$F2psEnteredState restore end} def
%%EndProlog

$F2psBegin
10 setmiterlimit
n -1000 1792 m -1000 -1000 l 1486 -1000 l 1486 1792 l cp clip
 0.06299 0.06299 sc
% Polyline
7.500 slw
gs  clippath
496 687 m 448 769 l 396 691 l 400 797 l 500 793 l cp
clip
n 226 226 m 227 226 l 230 226 l 237 226 l 248 226 l 262 226 l
 276 226 l 290 226 l 303 226 l 315 226 l 326 226 l
 338 226 l 350 226 l 364 225 l 378 224 l 393 223 l
 408 223 l 422 222 l 433 223 l 443 224 l 449 226 l
 453 232 l 449 241 l 439 251 l 430 262 l 424 272 l
 423 281 l 426 288 l 432 294 l 440 300 l 450 306 l
 459 312 l 467 318 l 472 325 l 474 332 l 472 339 l
 467 347 l 459 355 l 449 364 l 438 372 l 430 380 l
 425 388 l 423 396 l 425 404 l 430 411 l 438 419 l
 449 426 l 459 433 l 467 440 l 472 448 l 474 455 l
 472 462 l 467 469 l 459 476 l 449 483 l 438 490 l
 430 497 l 425 504 l 423 511 l 425 518 l 430 524 l
 438 530 l 449 536 l 459 543 l 467 549 l 472 555 l
 474 562 l 472 569 l 467 576 l 459 584 l 449 592 l
 438 599 l 430 607 l 425 614 l 423 621 l 425 628 l
 430 634 l 438 641 l 447 647 l 457 654 l 465 660 l
 471 666 l 474 672 l 474 679 l 470 685 l 464 691 l
 457 696 l 452 703 l 449 711 l 448 718 l 447 728 l
 447 740 l 448 753 l 449 780 l gs col0 s gr gr

% arrowhead
n 496 687 m 448 769 l 396 691 l  col0 s
$F2psEnd
rs
