%!PS-Adobe-2.0 EPSF-2.0
%%Title: arpdis-battere.eps
%%Creator: fig2dev Version 3.2 Patchlevel 0-beta3
%%CreationDate: Sun May 24 20:11:29 1998
%%For: nicb@ax-nicb.axnet.it (Nicola Bernardini)
%%Orientation: Portrait
%%BoundingBox: 0 0 18 37
%%Pages: 0
%%BeginSetup
%%EndSetup
%%Magnification: 1.0000
%%EndComments
/$F2psDict 200 dict def
$F2psDict begin
$F2psDict /mtrx matrix put
/col-1 {0 setgray} bind def
/col0 {0.000 0.000 0.000 srgb} bind def
/col1 {0.000 0.000 1.000 srgb} bind def
/col2 {0.000 1.000 0.000 srgb} bind def
/col3 {0.000 1.000 1.000 srgb} bind def
/col4 {1.000 0.000 0.000 srgb} bind def
/col5 {1.000 0.000 1.000 srgb} bind def
/col6 {1.000 1.000 0.000 srgb} bind def
/col7 {1.000 1.000 1.000 srgb} bind def
/col8 {0.000 0.000 0.560 srgb} bind def
/col9 {0.000 0.000 0.690 srgb} bind def
/col10 {0.000 0.000 0.820 srgb} bind def
/col11 {0.530 0.810 1.000 srgb} bind def
/col12 {0.000 0.560 0.000 srgb} bind def
/col13 {0.000 0.690 0.000 srgb} bind def
/col14 {0.000 0.820 0.000 srgb} bind def
/col15 {0.000 0.560 0.560 srgb} bind def
/col16 {0.000 0.690 0.690 srgb} bind def
/col17 {0.000 0.820 0.820 srgb} bind def
/col18 {0.560 0.000 0.000 srgb} bind def
/col19 {0.690 0.000 0.000 srgb} bind def
/col20 {0.820 0.000 0.000 srgb} bind def
/col21 {0.560 0.000 0.560 srgb} bind def
/col22 {0.690 0.000 0.690 srgb} bind def
/col23 {0.820 0.000 0.820 srgb} bind def
/col24 {0.500 0.190 0.000 srgb} bind def
/col25 {0.630 0.250 0.000 srgb} bind def
/col26 {0.750 0.380 0.000 srgb} bind def
/col27 {1.000 0.500 0.500 srgb} bind def
/col28 {1.000 0.630 0.630 srgb} bind def
/col29 {1.000 0.750 0.750 srgb} bind def
/col30 {1.000 0.880 0.880 srgb} bind def
/col31 {1.000 0.840 0.000 srgb} bind def

end
save
-26.0 50.0 translate
1 -1 scale

/cp {closepath} bind def
/ef {eofill} bind def
/gr {grestore} bind def
/gs {gsave} bind def
/sa {save} bind def
/rs {restore} bind def
/l {lineto} bind def
/m {moveto} bind def
/rm {rmoveto} bind def
/n {newpath} bind def
/s {stroke} bind def
/sh {show} bind def
/slc {setlinecap} bind def
/slj {setlinejoin} bind def
/slw {setlinewidth} bind def
/srgb {setrgbcolor} bind def
/rot {rotate} bind def
/sc {scale} bind def
/sd {setdash} bind def
/ff {findfont} bind def
/sf {setfont} bind def
/scf {scalefont} bind def
/sw {stringwidth} bind def
/tr {translate} bind def
/tnt {dup dup currentrgbcolor
  4 -2 roll dup 1 exch sub 3 -1 roll mul add
  4 -2 roll dup 1 exch sub 3 -1 roll mul add
  4 -2 roll dup 1 exch sub 3 -1 roll mul add srgb}
  bind def
/shd {dup dup currentrgbcolor 4 -2 roll mul 4 -2 roll mul
  4 -2 roll mul srgb} bind def
/$F2psBegin {$F2psDict begin /$F2psEnteredState save def} def
/$F2psEnd {$F2psEnteredState restore end} def
%%EndProlog

$F2psBegin
10 setmiterlimit
n -1000 1792 m -1000 -1000 l 1686 -1000 l 1686 1792 l cp clip
 0.06299 0.06299 sc
% Polyline
7.500 slw
gs  clippath
504 691 m 451 769 l 404 687 l 400 793 l 500 797 l cp
clip
n 674 226 m 673 226 l 670 226 l 663 226 l 652 226 l 638 226 l
 624 226 l 610 226 l 597 226 l 585 226 l 574 226 l
 562 226 l 550 226 l 536 225 l 522 224 l 507 223 l
 492 223 l 478 222 l 467 223 l 457 224 l 451 226 l
 447 232 l 451 241 l 461 251 l 470 262 l 476 272 l
 477 281 l 474 288 l 468 294 l 460 300 l 450 306 l
 441 312 l 433 318 l 428 325 l 426 332 l 428 339 l
 433 347 l 441 355 l 452 364 l 462 372 l 470 380 l
 475 388 l 477 396 l 475 404 l 470 411 l 462 419 l
 452 426 l 441 433 l 433 440 l 428 448 l 426 455 l
 428 462 l 433 469 l 441 476 l 452 483 l 462 490 l
 470 497 l 475 504 l 477 511 l 475 518 l 470 524 l
 462 530 l 452 536 l 441 543 l 433 549 l 428 555 l
 426 562 l 428 569 l 433 576 l 441 584 l 452 592 l
 462 599 l 470 607 l 475 614 l 477 621 l 475 628 l
 470 634 l 462 641 l 453 647 l 443 654 l 435 660 l
 429 666 l 426 672 l 426 679 l 430 685 l 436 691 l
 443 696 l 448 703 l 451 711 l 452 718 l 453 728 l
 453 740 l 452 753 l 451 780 l gs col0 s gr gr

% arrowhead
n 504 691 m 451 769 l 404 687 l  col0 s
$F2psEnd
rs
