%!PS-Adobe-1.0
%%Creator: Mup
%%Title: music
%%CreationDate: Mon May 25 1:7:59 1998
%%Pages: (atend)
%%DocumentFonts: (atend)
%%BoundingBox: 0 0 243 141
%%EndComments
% Copyright (c) 1995, 1996 by Arkkra Enterprises
% All rights reserved

% Mup PostScript Prolog 2.6 for use with Mup 2.6

% Define the following for use in do_upshortnote, do_dnshortnote, and
% do_shortrest; it has to be done outside of the music font definition.
/utildict 10 dict def
utildict begin
	/setnumflags	{	/numflags	exch def } def
	/sethooksm1	{	/hooksm1	exch def } def
	/setoffsets	{	/offsets	exch def } def
	/setx		{	/x		exch def } def
	/sety		{	/y		exch def } def
end

% Define the music character font.  Each music character is defined as if it
% were a normal ASCII character in a strange font where "A" looks like a
% treble clef, "B" looks like a bass clef, etc.

/mfont 100 dict def
mfont begin
	/FontType 3 def
	/FontMatrix [ .001 0 0 0.001 0 0 ] def
	/FontBBox [ -2000 -4030 2000 4030 ] def

	% set up Encoding vector with standard names
	/Encoding 256 array def
	StandardEncoding Encoding copy
	pop

	% lwid is used as the width of a standard (thin) line in the music
	% character definitions.
	/lwid 70 def
	/halflwid lwid 2 div def

	% the following definitions are used for quarter rests
	/topx -170 def /topy 950 def
	/cor1x 250 def /cor1y 450 def
	/cor2x -300 def /cor2y 200 def
	/cor3x 250 def /cor3y -400 def

	% the following definitions are used for double sharps
	/limit 300 halflwid add def
	/off 70 def
	/inbendsmall limit 200 sub def
	/inbendbig limit 20 sub def
	/outbendsmall 100 def
	/outbendbig outbendsmall off add def

	%%%%% define routines that will be used by multiple characters %%%%%
	/do_1n {
		gsave
		newpath -10 rotate 1.6 1 scale
		0 0 325 0 360 arc		%outer ellipse
		1 1.6 div 1 scale 10 rotate	%back to original
		35 rotate 0.85 1.1 scale
		0 0 275 0 360 arc		%inner ellipse
		eofill
		grestore
	} def
	/do_upflag {
		-315 0 moveto
		-300 100 -100 480 0 600 curveto
		300 960 350 1500 200 1700 curveto
		130 1700 lineto
		350 1200 50 650 -315 600 curveto
		fill
	} def
	/do_flat {
		-250 -400 moveto	%outer edge of loop
		500 0 350 650 -250 160 curveto
		-250 160 lwid sub lineto %inner edge of loop
		100 400 300 0 -250 -400 lwid add curveto
		fill

		lwid setlinewidth	%stem
		-250 1100 moveto -250 -400 lineto stroke
	} def
	/do_diamond {
		gsave
		100 setlinewidth 1.15 1 scale
		-300 0 moveto 0 300 lineto
		300 0 lineto 0 -300 lineto closepath stroke
		grestore
	} def
	/do_2n {
		gsave
		newpath 25 rotate 1.4 1 scale
		0 0 315 0 360 arc		%outer ellipse
		1 1.4 div 1 scale		%back to original
		1.3 0.5 scale
		0 0 310 0 360 arc		%inner ellipse
		eofill
		grestore
	} def
	/do_4n {
		gsave
		newpath 25 rotate 1.35 1 scale
		0 0 310 0 360 arc fill
		grestore
	} def
	/do_com {
		newpath
		330 250 150 0 360 arc fill	%knob at upper right
		465 300 moveto			%outer boundary
		410 500 200 635 0 635 curveto
		-750 635 -750 -635 0 -635 curveto
		350 -635 480 -300 500 -100 curveto
		430 -100 lineto			%inner boundary
		380 -300 250 -565 0 -565 curveto
		-450 -565 -450 565 0 565 curveto
		200 565 370 350 395 300 curveto
		fill
	} def
	/do_ferm {
		0 0 800 lwid sub 0 180 arc	%inner arc
		-800 0 lineto
		0 270 lwid sub 800 180 0 arcn	%outer arc
		800 0 lineto fill
		0 120 120 0 360 arc fill	%the dot
	} def
	/do_mor {
		gsave
		0.7 1 scale	%scrunch the following horizontally
		45 rotate	%to pretend all lines horz or vertical
		0 1 1 {
			pop	%we don't need the loop variable
			%one half of the mordent
			0 40 moveto 350 40 lineto 350 -460 lineto
			750 -460 lineto 750 -540 lineto
			150 -540 lineto 150 -40 lineto
			0 -40 lineto fill
			180 rotate	%to do the other half
		} for
		grestore
	} def
	/do_turn {
		gsave
		0 1 1 {
			pop	%we don't need the loop variable
			0 -100 moveto	%outer boundary
			200 -400 625 -400 625 0 curveto
			625 200 500 325 300 325 curveto
			300 185 lineto	%inner boundary
			450 255 555 150 555 0 curveto
			555 -350 250 -250 0 100 curveto
			fill
			300 255 70 0 360 arc fill %knob on end
			180 rotate	%to do the other half
		} for
		grestore
	} def

	/do_upshortnote {
		utildict begin
		setnumflags		%set numflags from the stack
		gsave
		-330 0 translate	%half a flag width
		do_4n			%do a quarter note head
		lwid setlinewidth
		370 0 moveto
		370 2100 numflags 2 sub flagsep mul add lineto stroke
		670 2100 numflags 2 sub flagsep mul add translate
		1 -1 scale		%reflect across X axis
		0 1 numflags 1 sub {
			do_upflag	%do an upflag
			pop		%we don't need the loop variable
			0 flagsep translate
		} for
		grestore
		end
	} def

	/do_dnshortnote {
		utildict begin
		setnumflags		%set numflags from the stack
		do_4n			%do a quarter note head
		lwid setlinewidth
		-370 0 moveto
		-370 -2100 numflags 2 sub flagsep mul sub lineto stroke
		gsave
		-70 -2100 numflags 2 sub flagsep mul sub translate
		0 1 numflags 1 sub {
			do_upflag	%do an upflag
			pop		%we don't need the loop variable
			0 flagsep translate
		} for
		grestore
		end
	} def

	/do_shortrest {
		utildict begin
		sety setx setoffsets sethooksm1	%set variable from the stack
		gsave
		-105.8 offsets mul -600 offsets mul translate
		0 1 hooksm1 {		%loop once per hook
			newpath
			1 setlinewidth
			gsave
			1 1.2 scale
			-150 300 1.2 div 140 0 360 arc fill 	%the dot
			grestore
			lwid setlinewidth
			-50 700 550 255 315 arc		%rest of the hook
			hooksm1 lt { stroke 105.8 600 translate } if
		} for
		x y lineto stroke
		grestore
		end
	} def


	% subsidiary dictionary of character definitions
	/CharStrings 128 dict def
	CharStrings begin

		/.notdef {} def

		% Here are the definitions of the characters.  A stepsize here
		% is 300 units (assuming the character is drawn at its default
		% size).

		% gclef
		/A {
			newpath
			%start with inner curl, inside boundary
			-50 -300 moveto
			-450 600 700 700 750 0 curveto
			750 -800 -700 -800 -700 200 curveto
			-700 900 500 1400 520 2250 curveto
			520 2900 300 3000 200 3000 curveto
			100 3000 -400 2500 -200 1800 curveto
			350 -600 lineto
			720 -1600 0 -1650 -400 -1400 curveto

			%go back to start, drawing the other boundary
			-400 -1480 lineto
			0 -1700 800 -1700 430 -600 curveto
			-120 1800 lineto
			-300 2400 200 2800 250 2800 curveto
			400 2800 430 2700 430 2450 curveto
			430 1800 -900 1200 -900 300 curveto
			-750 -900 800 -900 850 0 curveto
			900 1100 -750 900 -120 -300 curveto fill

			%circle at the bottom
			-300 -1250 250 0 360 arc fill
		} def

		% fclef
		/B {
			newpath
			%start with outside boundary, at bottom
			-1000 -1700 moveto
			100 -1100 500 -600 450 0 curveto
			450 850 -1100 850 -950 0 curveto

			%go back to start, drawing the other boundary
			-880 0 lineto
			-920 400 -600 560 -300 560 curveto
			0 560 150 400 150 0 curveto
			150 -400 100 -900 -1000 -1620 curveto fill

			%circle at the left
			newpath
			-700 0 250 0 360 arc fill

			%do the two dots after the main curve
			700 -300 100 0 360 arc fill
			700 300 100 0 360 arc fill
		} def

		% cclef
		/C {
			gsave
			%do upper curved part, then scale to do mirror image
			0 1 1 {
				pop	%we don't need the loop variable
				%outer boundary of curve
				-170 0 moveto 100 300 lineto
				400 -200 750 300 750 650 curveto
				750 1100 450 1235 250 1235 curveto
				0 1235 -143 1100 -143 950 curveto

				%inner boundary of curve
				0 950 lineto
				0 1100 30 1165 250 1165 curveto
				300 1165 450 1100 450 650 curveto
				450 400 400 -100 100 400 curveto
				-270 0 lineto fill
				%stroke
				%-270 0 moveto 100 400 lineto
				%400 -100 450 400 450 650 curveto
				%450 1100 300 1165 250 1165 curveto
				%30 1165 0 1100 0 950 curveto
				%stroke

				%elliptical ball at end of curve
				gsave
				1.3 1 scale
				10 950 120 0 360 arc fill
				grestore
				1 -1 scale	%reflect across X axis
			} for
			grestore

			% two vertical lines on the left
			300 setlinewidth -600 -1200 halflwid sub moveto
			-600 1200 halflwid add lineto stroke
			lwid setlinewidth -300 -1200 halflwid sub moveto
			-300 1200 halflwid add lineto stroke
		} def

		% dblwhole
		/D {
			do_1n		%do a whole note
			lwid setlinewidth
			-490 -600 moveto -490 600 lineto stroke
			490 -600 moveto 490 600 lineto stroke
		} def

		% 1n
		/E {
			do_1n		%do a whole note
		} def

		% 2n
		/F {
			do_2n		%do a half note
		} def

		% 4n
		/G {
			do_4n		%do a quarter note head
		} def

		% upflag
		/H {
			do_upflag		%do an upflag
		} def

		% dnflag
		/I {
			gsave
			1 -1 scale	%reflect across X axis
			do_upflag		%do an upflag
			grestore
		} def

		% dwhrest
		/J {
			300 setlinewidth
			0 0 moveto 0 600 lineto stroke
		} def

		% 1rest
		/K {
			lwid setlinewidth
			-750 600 moveto 750 600 lineto stroke
			300 setlinewidth
			-400 450 moveto 400 450 lineto stroke
		} def

		% 2rest
		/L {
			lwid setlinewidth
			-750 0 moveto 750 0 lineto stroke
			300 setlinewidth
			-400 150 moveto 400 150 lineto stroke
		} def

		% 4rest
		/M {
			newpath
			cor3x cor3y halflwid add moveto
			%-400 -200 -450 -650 50 -950 lwid add curveto
			-450 -50 -450 -650 50 -950 lwid add curveto
			-150 -650 -100 -250 cor3x cor3y halflwid sub curveto
			fill

			cor1x cor1y moveto cor1x 200 sub cor1y 200 add lineto
			cor2x cor2y lineto cor2x 200 add cor2y 200 sub lineto
			fill

			lwid setlinewidth
			topx topy moveto cor1x cor1y lineto stroke
			cor2x cor2y moveto cor3x cor3y lineto stroke
		} def

		% 8rest
		/N {
			0 0 0 -600 do_shortrest
		} def

		% 16rest
		/O {
			1 1 100 -1200 do_shortrest
		} def

		% 32rest
		/P {
			2 1 0 -1800 do_shortrest
		} def

		% 64rest
		/Q {
			3 2 -80 -2100 do_shortrest
		} def

		% 128rest
		/R {
			4 2 -150 -2700 do_shortrest
		} def

		% 256rest
		/S {
			5 3 -280 -3300 do_shortrest
		} def

		% dot
		/T {
			newpath
			0 0 120 0 360 arc fill
		} def

		% nat
		/U {
			% fill crossbars so that we can do parallelograms
			-235 -470 moveto -235 -270 lineto
			235 -130 lineto 235 -330 lineto fill
			-235 130 moveto -235 330 lineto
			235 470 lineto 235 270 lineto fill

			% vertical strokes
			lwid setlinewidth
			-200 -380 moveto -200 850 lineto stroke
			200 -850 moveto 200 380 lineto stroke
		} def

		% sharp
		/V {
			% fill crossbars so that we can do parallelograms
			-325 -480 moveto -325 -280 lineto
			325 -120 lineto 325 -320 lineto fill
			-325 120 moveto -325 320 lineto
			325 480 lineto 325 280 lineto fill

			% vertical strokes
			lwid setlinewidth
			-150 -930 moveto -150 880 lineto stroke
			150 -880 moveto 150 930 lineto stroke
		} def

		% flat
		/W {
			do_flat		%do a flat
		} def

		% dblsharp
		/X {
			gsave
			0 1 3 {		%loop once for each of 4 sticks
				pop	%we don't need the loop variable
				0 off neg moveto
				outbendbig outbendsmall lineto
				inbendbig inbendsmall lineto
				limit limit lineto
				inbendsmall inbendbig lineto
				outbendsmall outbendbig lineto
				off neg 0 lineto
				fill
				-90 rotate
			} for
			grestore
		} def

		% dblflat
		/Y {
			-290 580 290 {	%loop once for each flat

				gsave
				1 setlinewidth
				0 translate	%translate left/right (loop var)
				do_flat		%do a flat
				grestore

			} for
		} def

		% xnote
		/Z {
			gsave
			1.15 1 scale 120 setlinewidth 1 setlinecap	%round
			-300 -300 moveto 300 300 lineto stroke
			-300 300 moveto 300 -300 lineto stroke
			grestore
		} def

		% dwhdiamond
		/a {
			do_diamond	%do a diamond
			lwid setlinewidth
			-420 -600 moveto -420 600 lineto stroke
			420 -600 moveto 420 600 lineto stroke
		} def

		% diamond
		/b {
			do_diamond	%do a diamond
		} def

		% filldiamond
		/c {
			gsave
			1.15 1 scale
			-340 0 moveto 0 340 lineto
			340 0 lineto 0 -340 lineto fill
			grestore
		} def

		% up2n
		/d {
			lwid setlinewidth
			380 0 moveto 380 2100 lineto stroke
			do_2n		%do a half note
		} def

		% dn2n
		/e {
			lwid setlinewidth
			-380 0 moveto -380 -2100 lineto stroke
			do_2n		%do a half note
		} def

		% up4n
		/f {
			do_4n		%do a quarter note head
			lwid setlinewidth
			370 0 moveto 370 2100 lineto stroke
		} def

		% dn4n
		/g {
			do_4n		%do a quarter note head
			lwid setlinewidth
			-370 0 moveto -370 -2100 lineto stroke
		} def

		% up8n
		/h {
			gsave
			-330 0 translate	% half a flag width
			do_4n		%do a quarter note head
			lwid setlinewidth
			370 0 moveto 370 2100 lineto stroke
			670 2100 translate
			1 -1 scale	%reflect across X axis
			do_upflag		%do an upflag
			grestore
		} def

		% dn8n
		/i {
			do_4n		%do a quarter note head
			lwid setlinewidth
			-370 0 moveto -370 -2100 lineto stroke
			gsave
			-70 -2100 translate
			do_upflag		%do an upflag
			grestore
		} def

		% up16n
		/j {
			2 do_upshortnote
		} def

		% dn16n
		/k {
			2 do_dnshortnote
		} def

		% up32n
		/l {
			3 do_upshortnote
		} def

		% dn32n
		/m {
			3 do_dnshortnote
		} def

		% up64n
		/n {
			4 do_upshortnote
		} def

		% dn64n
		/o {
			4 do_dnshortnote
		} def

		% up128n
		/p {
			5 do_upshortnote
		} def

		% dn128n
		/q {
			5 do_dnshortnote
		} def

		% up256n
		/r {
			6 do_upshortnote
		} def

		% dn256n
		/s {
			6 do_dnshortnote
		} def

		% com
		/t {
			do_com		%do a common time symbol
		} def

		% cut
		/u {
			do_com		%do a common time symbol
			lwid setlinewidth
			0 -900 moveto 0 900 lineto stroke
		} def

		% begped
		/v {
			lwid setlinewidth
			-200 600 moveto -200 0 lineto 200 0 lineto stroke
		} def

		% pedal
		/w {
			lwid setlinewidth
			-500 0 moveto -450 0 lineto 0 600 lineto
			450 0 lineto 500 0 lineto stroke
		} def

		% endped
		/x {
			lwid setlinewidth
			200 600 moveto 200 0 lineto -200 0 lineto stroke
		} def

		% dnbow
		/y {
			lwid setlinewidth
			-350 0 moveto -350 900 lineto stroke
			350 0 moveto 350 900 lineto stroke
			200 setlinewidth
			-350 800 moveto 350 800 lineto stroke
		} def

		% upbow
		/z {
			lwid setlinewidth
			-300 900 moveto 0 0 lineto 300 900 lineto stroke
		} def

		% wedge
		/one {
			0 0 moveto -150 500 lineto 150 500 lineto fill
		} def

		% uwedge
		/two {
			-150 0 moveto 150 0 lineto 0 500 lineto fill
		} def

		% ferm
		/three {
			newpath
			do_ferm		%do a right side up fermata
		} def

		% uferm
		/four {
			newpath
			gsave
			0 270 lwid sub 800 add translate %baseline at bottom
			180 rotate			%upside down
			do_ferm		%do a right side up fermata
			grestore
		} def

		% sign
		/five {
			gsave
			%do upper left curved part, upper right dot;
			%then rotate 180 to do other half
			0 1 1 {
				pop	%we don't need the loop variable
				0 100 moveto		%inner boundary
				-1000 300 -400 750 -200 700 curveto
				-200 800 lineto		%outer boundary
				-550 900 -1100 100 0 -100 curveto
				fill
				%dot at end of curve
				-200 700 100 0 360 arc fill
				%dot in upper right quadrant
				500 200 70 0 360 arc fill
				180 rotate
			} for
			grestore

			%slash through middle
			lwid setlinewidth
			-400 -800 moveto 400 800 lineto stroke
		} def

		% coda
		/six {
			newpath
			gsave
			0.6 1 scale
			0 0 550 0 360 arc	%outside boundary
			1 0.6 div 1 scale	%back to original
			0.9 1 scale
			0 0 650 0 360 arc	%inside boundary
			eofill
			grestore
			lwid setlinewidth
			0 -850 moveto 0 850 lineto stroke
			-800 0 moveto 800 0 lineto stroke
		} def

		% mor
		/seven {
			do_mor		%do a mordent
		} def

		% invmor
		/eight {
			do_mor		%do a mordent
			lwid setlinewidth
			0 -450 moveto 0 450 lineto stroke
		} def

		% turn
		/nine {
			do_turn		%do a turn
		} def

		% invturn
		/zero {
			gsave
			1 -1 scale	%reflect across X axis
			do_turn		%do a turn
			grestore
		} def

		% acc_gt
		/numbersign {
			lwid setlinewidth
			-500 300 moveto 500 0 lineto -500 -300 lineto stroke
		} def

		% acc_hat
		/dollar {
			120 setlinewidth
			-350 0 moveto 0 500 lineto 350 0 lineto stroke
		} def

		% acc_uhat
		/quotedbl {
			120 setlinewidth
			-350 500 moveto 0 0 lineto 350 500 lineto stroke
		} def

		% tr
		/asterisk {
			%vertical bar of t
			-350 1000 moveto -550 200 lineto
			-612.5 -50 -212.5 -50 -160 200 curveto
			-230 200 lineto
			-300 50 -420 50 -400 200 curveto
			-200 1000 lineto fill

			%crossbar of t and vertical bar of r
			-700 600 moveto -160 600 lineto
			20 600 30 520 60 440 curveto
			-50 0 lineto 70 0 lineto 180 440 lineto
			190 480 100 670 -150 670 curveto
			-690 670 lineto fill

			%horizontal curve of r
			100 480 moveto
			300 630 450 700 650 550 curveto
			560 480 lineto
			450 630 300 560 100 390 curveto
			fill

			%knob at end of r
			600 460 100 0 360 arc fill
		} def

		% leg
		/comma {
			100 setlinewidth
			-400 0 moveto 400 0 lineto stroke
		} def

		% rr
		/hyphen {
			100 setlinewidth
			-400 0 moveto 0 1000 lineto stroke
			0 0 moveto 400 1000 lineto stroke
		} def

		% measrpt
		/period {
			newpath -450 400 150 0 360 arc fill
			newpath 450 -400 150 0 360 arc fill
			200 setlinewidth
			-550 -600 moveto 550 600 lineto stroke
		} def

		% copyright
		/slash {
			lwid setlinewidth
			newpath 0 400 400 0 360 arc stroke
			newpath 0 400 200 45 315 arc stroke
		} def
	end

	/BuildChar {

		exch begin
		Encoding exch get

		dup
		Mcbbox exch get
		aload pop setcachedevice

		CharStrings exch get
		exec
		end
	} def
end


% General routine for printing any music character, invoked by each music
% character's specific routine below.  The scaling factor (default 1) needs
% to be multiplied by 10 to get the actual size.  This routine restores the
% preexisting current font when it is done.

/printmchar {
	gsave
	/musicchar exch def
	/Mfont findfont exch 10 mul scalefont setfont moveto 
	musicchar show
	grestore
} def

% Define each music character name to be a routine that prints the character.
% Each character is to be invoked as in this example:
%	100 200 1 gclef		% at (100, 200), scale to default size & print

/gclef		{ (A) printmchar } def
/fclef		{ (B) printmchar } def
/cclef		{ (C) printmchar } def
/dblwhole	{ (D) printmchar } def
/1n		{ (E) printmchar } def
/2n		{ (F) printmchar } def
/4n		{ (G) printmchar } def
/upflag		{ (H) printmchar } def
/dnflag		{ (I) printmchar } def
/dwhrest	{ (J) printmchar } def
/1rest		{ (K) printmchar } def
/2rest		{ (L) printmchar } def
/4rest		{ (M) printmchar } def
/8rest		{ (N) printmchar } def
/16rest		{ (O) printmchar } def
/32rest		{ (P) printmchar } def
/64rest		{ (Q) printmchar } def
/128rest	{ (R) printmchar } def
/256rest	{ (S) printmchar } def
/dot		{ (T) printmchar } def
/nat		{ (U) printmchar } def
/sharp		{ (V) printmchar } def
/flat		{ (W) printmchar } def
/dblsharp	{ (X) printmchar } def
/dblflat	{ (Y) printmchar } def
/xnote		{ (Z) printmchar } def
/dwhdiamond	{ (a) printmchar } def
/diamond	{ (b) printmchar } def
/filldiamond	{ (c) printmchar } def
/up2n		{ (d) printmchar } def
/dn2n		{ (e) printmchar } def
/up4n		{ (f) printmchar } def
/dn4n		{ (g) printmchar } def
/up8n		{ (h) printmchar } def
/dn8n		{ (i) printmchar } def
/up16n		{ (j) printmchar } def
/dn16n		{ (k) printmchar } def
/up32n		{ (l) printmchar } def
/dn32n		{ (m) printmchar } def
/up64n		{ (n) printmchar } def
/dn64n		{ (o) printmchar } def
/up128n		{ (p) printmchar } def
/dn128n		{ (q) printmchar } def
/up256n		{ (r) printmchar } def
/dn256n		{ (s) printmchar } def
/com		{ (t) printmchar } def
/cut		{ (u) printmchar } def
/begped		{ (v) printmchar } def
/pedal		{ (w) printmchar } def
/endped		{ (x) printmchar } def
/dnbow		{ (y) printmchar } def
/upbow		{ (z) printmchar } def
/wedge		{ (1) printmchar } def
/uwedge		{ (2) printmchar } def
/ferm		{ (3) printmchar } def
/uferm		{ (4) printmchar } def
/sign		{ (5) printmchar } def
/coda		{ (6) printmchar } def
/mor		{ (7) printmchar } def
/invmor		{ (8) printmchar } def
/turn		{ (9) printmchar } def
/invturn	{ (0) printmchar } def
/acc_gt		{ (#) printmchar } def
/acc_hat	{ ($) printmchar } def
/acc_uhat	{ (") printmchar } def
/tr		{ (*) printmchar } def
/leg		{ (,) printmchar } def
/rr		{ (-) printmchar } def
/measrpt	{ (.) printmchar } def
/copyright	{ (/) printmchar } def


% Define routines for Mup output other than music characters.

/stepsize 3 def	   % define a step size as 3 points (at default magnification)

% x1 y1 x2 staff	draw a staff starting at x1, y2 at extending to x2
/staff {
	/x2 exch def
	/y1 exch def
	/x1 exch def
	0.7 setlinewidth
	-4 2 4 {	% 5 lines, each 2 stepsizes apart, middle line at 0
		dup stepsize mul y1 add x1 exch moveto
		stepsize mul y1 add x2 exch lineto stroke
	} for
} def

% x y1 y2 bracket	draw a bracket; y1 is the top
/bracket {
	/y2 exch def
	/y1 exch def
	/x exch def
	gsave
	3 setlinewidth
	x 2 sub y1 1 add moveto
	x 2 sub y2 1 sub lineto
	stroke
	x 2 sub y1 1 add moveto
	x 1 sub y1 1 add   x 3 add y1 1 add   x 5 add y1 6 add   curveto
	x 6 add y1 5 add lineto
	x 5 add y1 2 add   x 1 add y1 2 sub   x 2 sub y1 2 sub   curveto
	fill
	x 2 sub y2 1 sub moveto
	x 1 sub y2 1 sub   x 3 add y2 1 sub   x 5 add y2 6 sub   curveto
	x 6 add y2 5 sub lineto
	x 5 add y2 2 sub   x 1 add y2 2 add   x 2 sub y2 2 add   curveto
	fill
	grestore
} def

% x y1 y2 brace		draw a brace; y1 is the top
/brace {
	/y2 exch def
	/y1 exch def
	/x exch def
	gsave
	x 9 sub y1 y2 add 2 div translate
	/topy y1 y2 sub 2 div 1 sub def
	0 1 1 {
		pop
		%0 topy moveto 0 0 lineto stroke
		0 0 moveto
		16 topy 0.2 mul   -11 topy 0.6 mul   8 topy   curveto
		8.7 topy lineto
		-7 topy 0.7 mul   20 topy 0.3 mul   1 0   curveto
		fill
		1 -1 scale	% flip to do bottom half
	} for
	grestore
} def

% endx endy wavy	draw a wavy line from current point to here
/wavy {
	/endy exch def		% define the end point of the line
	/endx exch def
	currentpoint		% line starts at current point
	/begy exch def		% define the beginning point of the line
	/begx exch def
	gsave
	/dx endx begx sub def	% find delta x and delta y
	/dy endy begy sub def
	/r dx dx mul dy dy mul add sqrt def	% hypotenuse
	/theta dy dx atan def			% angle with positive x axis
	begx begy translate	% change axes so that we can draw the line
	theta rotate		%   from (0, 0) to (r, 0)

	% Each outer loop draws one cycle of the squiggle.  It continues until
	% we are at or beyond the desired end point.
	0 0 moveto
	0 6 r {
		gsave
		% first loop draws left half of squiggle; second draws right
		0 1 1 {
			0.0 0.4 moveto
			2.0 1.9 3.4 2.3 3.9 0.0 curveto
			2.1 0.0 lineto
			1.9 0.8 1.4 0.7 0.0 -0.4 curveto
			fill
			pop 180 rotate -6 0 translate
		} for
		grestore

		pop 6 0 translate	% shift axes right one squiggle
	} for

	grestore
} def


/LineNum 0 def
/InputFile (unknown) def

% n linenum
/linenum {
	/LineNum exch def
} def

% (inputfilename) inputfile
/inputfile {
	/InputFile exch def
} def

% find size of Encoding and make a dictionary
% that size for bounding box information
mfont begin
/dictsize Encoding length def
mfont /Mcbbox dictsize dict put

% temporarily redefine printmchar to get code
5 dict begin
/printmchar { {} forall } def

Mcbbox Encoding 128rest get [ 1130.0 0 -515.0 -1515.0 605.0 1685.0 ] put
Mcbbox Encoding 16rest get [ 820.0 0 -415.0 -1215.0 395.0 485.0 ] put
Mcbbox Encoding 1n get [ 1070.0 0 -535.0 -335.0 525.0 345.0 ] put
Mcbbox Encoding 1rest get [ 1530.0 0 -765.0 295.0 755.0 645.0 ] put
Mcbbox Encoding 256rest get [ 1240.0 0 -625.0 -2115.0 605.0 1685.0 ] put
Mcbbox Encoding 2n get [ 870.0 0 -435.0 -345.0 425.0 355.0 ] put
Mcbbox Encoding 2rest get [ 1530.0 0 -765.0 -45.0 755.0 315.0 ] put
Mcbbox Encoding 32rest get [ 920.0 0 -415.0 -1205.0 495.0 1085.0 ] put
Mcbbox Encoding 4n get [ 830.0 0 -415.0 -335.0 405.0 345.0 ] put
Mcbbox Encoding 4rest get [ 620.0 0 -335.0 -885.0 275.0 985.0 ] put
Mcbbox Encoding 64rest get [ 1030.0 0 -515.0 -1505.0 505.0 1085.0 ] put
Mcbbox Encoding 8rest get [ 740.0 0 -305.0 -615.0 425.0 485.0 ] put
Mcbbox Encoding acc_gt get [ 1150.0 0 -525.0 -335.0 615.0 345.0 ] put
Mcbbox Encoding acc_hat get [ 830.0 0 -415.0 -35.0 405.0 615.0 ] put
Mcbbox Encoding acc_uhat get [ 830.0 0 -415.0 -105.0 405.0 545.0 ] put
Mcbbox Encoding begped get [ 460.0 0 -245.0 -45.0 205.0 615.0 ] put
Mcbbox Encoding cclef get [ 1530.0 0 -765.0 -1245.0 755.0 1255.0 ] put
Mcbbox Encoding coda get [ 1630.0 0 -815.0 -855.0 805.0 865.0 ] put
Mcbbox Encoding com get [ 1090.0 0 -575.0 -645.0 505.0 655.0 ] put
Mcbbox Encoding copyright get [ 890.0 0 -445.0 -35.0 435.0 845.0 ] put
Mcbbox Encoding cut get [ 1090.0 0 -575.0 -905.0 505.0 915.0 ] put
Mcbbox Encoding dblflat get [ 1150.0 0 -585.0 -405.0 555.0 1115.0 ] put
Mcbbox Encoding dblsharp get [ 710.0 0 -355.0 -345.0 345.0 355.0 ] put
Mcbbox Encoding dblwhole get [ 1080.0 0 -535.0 -605.0 535.0 615.0 ] put
Mcbbox Encoding diamond get [ 870.0 0 -435.0 -375.0 425.0 385.0 ] put
Mcbbox Encoding dn128n get [ 830.0 0 -415.0 -3545.0 405.0 345.0 ] put
Mcbbox Encoding dn16n get [ 830.0 0 -415.0 -2105.0 405.0 345.0 ] put
Mcbbox Encoding dn256n get [ 830.0 0 -415.0 -3965.0 405.0 345.0 ] put
Mcbbox Encoding dn2n get [ 870.0 0 -435.0 -2105.0 425.0 355.0 ] put
Mcbbox Encoding dn32n get [ 830.0 0 -415.0 -2585.0 405.0 345.0 ] put
Mcbbox Encoding dn4n get [ 830.0 0 -415.0 -2105.0 405.0 345.0 ] put
Mcbbox Encoding dn64n get [ 830.0 0 -415.0 -3065.0 405.0 345.0 ] put
Mcbbox Encoding dn8n get [ 830.0 0 -415.0 -2105.0 405.0 345.0 ] put
Mcbbox Encoding dnbow get [ 800.0 0 -395.0 -5.0 395.0 915.0 ] put
Mcbbox Encoding dnflag get [ 630.0 0 -335.0 -1705.0 285.0 15.0 ] put
Mcbbox Encoding dot get [ 270.0 0 -135.0 -125.0 125.0 135.0 ] put
Mcbbox Encoding dwhdiamond get [ 940.0 0 -465.0 -605.0 465.0 615.0 ] put
Mcbbox Encoding dwhrest get [ 330.0 0 -165.0 -5.0 155.0 615.0 ] put
Mcbbox Encoding endped get [ 470.0 0 -215.0 -45.0 245.0 615.0 ] put
Mcbbox Encoding fclef get [ 1830.0 0 -1015.0 -1705.0 805.0 655.0 ] put
Mcbbox Encoding ferm get [ 1630.0 0 -815.0 -5.0 805.0 1015.0 ] put
Mcbbox Encoding filldiamond get [ 790.0 0 -395.0 -345.0 385.0 355.0 ] put
Mcbbox Encoding flat get [ 570.0 0 -295.0 -405.0 265.0 1115.0 ] put
Mcbbox Encoding gclef get [ 1780.0 0 -915.0 -1595.0 855.0 3015.0 ] put
Mcbbox Encoding invmor get [ 1310.0 0 -655.0 -455.0 645.0 465.0 ] put
Mcbbox Encoding invturn get [ 1290.0 0 -645.0 -335.0 635.0 345.0 ] put
Mcbbox Encoding leg get [ 830.0 0 -415.0 -55.0 405.0 65.0 ] put
Mcbbox Encoding measrpt get [ 1270.0 0 -635.0 -675.0 625.0 685.0 ] put
Mcbbox Encoding mor get [ 1310.0 0 -655.0 -285.0 645.0 295.0 ] put
Mcbbox Encoding nat get [ 510.0 0 -255.0 -855.0 245.0 865.0 ] put
Mcbbox Encoding pedal get [ 1030.0 0 -515.0 -45.0 505.0 665.0 ] put
Mcbbox Encoding rr get [ 910.0 0 -455.0 -25.0 445.0 1035.0 ] put
Mcbbox Encoding sharp get [ 690.0 0 -345.0 -935.0 335.0 945.0 ] put
Mcbbox Encoding sign get [ 1330.0 0 -665.0 -815.0 655.0 825.0 ] put
Mcbbox Encoding tr get [ 1430.0 0 -715.0 -5.0 705.0 1015.0 ] put
Mcbbox Encoding turn get [ 1290.0 0 -645.0 -335.0 635.0 345.0 ] put
Mcbbox Encoding uferm get [ 1630.0 0 -815.0 -5.0 805.0 1015.0 ] put
Mcbbox Encoding up128n get [ 1380.0 0 -745.0 -335.0 625.0 3555.0 ] put
Mcbbox Encoding up16n get [ 1380.0 0 -745.0 -335.0 625.0 2115.0 ] put
Mcbbox Encoding up256n get [ 1380.0 0 -745.0 -335.0 625.0 3975.0 ] put
Mcbbox Encoding up2n get [ 870.0 0 -435.0 -345.0 425.0 2115.0 ] put
Mcbbox Encoding up32n get [ 1380.0 0 -745.0 -335.0 625.0 2595.0 ] put
Mcbbox Encoding up4n get [ 840.0 0 -415.0 -335.0 415.0 2115.0 ] put
Mcbbox Encoding up64n get [ 1380.0 0 -745.0 -335.0 625.0 3075.0 ] put
Mcbbox Encoding up8n get [ 1380.0 0 -745.0 -335.0 625.0 2115.0 ] put
Mcbbox Encoding upbow get [ 690.0 0 -345.0 -105.0 335.0 925.0 ] put
Mcbbox Encoding upflag get [ 630.0 0 -335.0 -5.0 285.0 1715.0 ] put
Mcbbox Encoding uwedge get [ 330.0 0 -165.0 -5.0 155.0 505.0 ] put
Mcbbox Encoding wedge get [ 330.0 0 -165.0 5.0 155.0 515.0 ] put
Mcbbox Encoding xnote get [ 850.0 0 -425.0 -365.0 415.0 375.0 ] put

end
end

/Mfont mfont definefont

/makeExtEncoding {
	/extendedencoding 256 array def
	StandardEncoding extendedencoding copy
	extendedencoding 32 /exclamdown put
	extendedencoding 33 /cent put
	extendedencoding 34 /sterling put
	extendedencoding 35 /yen put
	extendedencoding 36 /quotedblleft put
	extendedencoding 37 /guillemotleft put
	extendedencoding 38 /guillemotright put
	extendedencoding 39 /guilsinglleft put
	extendedencoding 40 /guilsinglright put
	extendedencoding 41 /dagger put
	extendedencoding 42 /daggerdbl put
	extendedencoding 43 /bullet put
	extendedencoding 44 /quotedblbase put
	extendedencoding 45 /quotedblright put
	extendedencoding 46 /questiondown put
	extendedencoding 47 /grave put
	extendedencoding 48 /acute put
	extendedencoding 49 /macron put
	extendedencoding 50 /breve put
	extendedencoding 51 /dotaccent put
	extendedencoding 52 /dieresis put
	extendedencoding 53 /ring put
	extendedencoding 54 /cedilla put
	extendedencoding 55 /hungarumlaut put
	extendedencoding 56 /ogonek put
	extendedencoding 57 /caron put
	extendedencoding 58 /emdash put
	extendedencoding 59 /AE put
	extendedencoding 60 /ae put
	extendedencoding 61 /ordfeminine put
	extendedencoding 62 /ordmasculine put
	extendedencoding 63 /Lslash put
	extendedencoding 64 /lslash put
	extendedencoding 65 /Oslash put
	extendedencoding 66 /oslash put
	extendedencoding 67 /OE put
	extendedencoding 68 /oe put
	extendedencoding 69 /dotlessi put
	extendedencoding 70 /germandbls put
	extendedencoding 71 /Aacute put
	extendedencoding 72 /aacute put
	extendedencoding 73 /Acircumflex put
	extendedencoding 74 /acircumflex put
	extendedencoding 75 /Adieresis put
	extendedencoding 76 /adieresis put
	extendedencoding 77 /Agrave put
	extendedencoding 78 /agrave put
	extendedencoding 79 /Aring put
	extendedencoding 80 /aring put
	extendedencoding 81 /Atilde put
	extendedencoding 82 /atilde put
	extendedencoding 83 /Ccedilla put
	extendedencoding 84 /ccedilla put
	extendedencoding 85 /Eacute put
	extendedencoding 86 /eacute put
	extendedencoding 87 /Ecircumflex put
	extendedencoding 88 /ecircumflex put
	extendedencoding 89 /Edieresis put
	extendedencoding 90 /edieresis put
	extendedencoding 91 /Egrave put
	extendedencoding 92 /egrave put
	extendedencoding 93 /Iacute put
	extendedencoding 94 /iacute put
	extendedencoding 95 /Icircumflex put
	extendedencoding 96 /icircumflex put
	extendedencoding 97 /Idieresis put
	extendedencoding 98 /idieresis put
	extendedencoding 99 /Igrave put
	extendedencoding 100 /igrave put
	extendedencoding 101 /Ntilde put
	extendedencoding 102 /ntilde put
	extendedencoding 103 /Oacute put
	extendedencoding 104 /oacute put
	extendedencoding 105 /Ocircumflex put
	extendedencoding 106 /ocircumflex put
	extendedencoding 107 /Odieresis put
	extendedencoding 108 /odieresis put
	extendedencoding 109 /Ograve put
	extendedencoding 110 /ograve put
	extendedencoding 111 /Otilde put
	extendedencoding 112 /otilde put
	extendedencoding 113 /Scaron put
	extendedencoding 114 /scaron put
	extendedencoding 115 /Uacute put
	extendedencoding 116 /uacute put
	extendedencoding 117 /Ucircumflex put
	extendedencoding 118 /ucircumflex put
	extendedencoding 119 /Udieresis put
	extendedencoding 120 /udieresis put
	extendedencoding 121 /Ugrave put
	extendedencoding 122 /ugrave put
	extendedencoding 123 /Ydieresis put
	extendedencoding 124 /ydieresis put
	extendedencoding 125 /Zcaron put
	extendedencoding 126 /zcaron put
} def

/makeExtendedFont {
	findfont
	dup length dict /newdict exch def
	{ 1 index /FID ne
		{ newdict 3 1 roll put }
		{ pop pop }
		ifelse
	} forall
	newdict /Encoding extendedencoding put
	newdict /UniqueID newdict /UniqueID get 1 add put
	newdict definefont pop
} def
/flagsep 1.60 300 mul def	 % 1.60 stepsizes
%%EndProlog
%%Page: 1 1
save
save /Times-Roman findfont 30 scalefont setfont 30 rotate 0.5 setgray
%rpr { moveto /st exch def /ix 0 def /m st def m
%1 sub m exch ix exch put /ix ix 1 add def } forall m show } def
%ijt!nvtjd!xbt!hfofsbufe!cz!bo) 250 230 erpr
%OSFHJTUFSFE!dpqz!pg!Nvq-) 250 200 erpr
%spn!iuuq;00xxx/bsllsb/dpn) 250 170 erpr
%tf!nvq!.s!up!hfu!b!sfhjtusbujpo!gpsn/) 250 140 erpr
restore
1.000000 1.000000 scale
%  S_SSV
(bassclef.mup) inputfile
3 linenum
%  S_FEED
55.1 84.7 207.8 staff
%  S_CLEFSIG
67.0 90.7 1.0 fclef
%  S_CHHEAD
%  S_STAFF
% staff 1
save
144.4 84.7 1.0 1rest
restore
%  S_BAR
12 linenum
0.70 setlinewidth
207.4 96.7 moveto
207.4 72.7 lineto stroke
%  Printing header/footer
showpage
restore
%%Trailer
%%DocumentFonts: 
%%Pages: 1
quit
