%!PS-Adobe-2.0 EPSF-2.0
%%Title: disposition.eps
%%Creator: fig2dev Version 3.2 Patchlevel 0-beta3
%%CreationDate: Sat Mar 27 09:43:40 1999
%%For: nicb@ax-nicb.axnet.it (Nicola Bernardini)
%%Orientation: Portrait
%%BoundingBox: 0 0 278 261
%%Pages: 0
%%BeginSetup
%%EndSetup
%%Magnification: 1.0000
%%EndComments
/MyAppDict 100 dict dup begin def
/$F2psDict 200 dict def
$F2psDict begin
$F2psDict /mtrx matrix put
/col-1 {0 setgray} bind def
/col0 {0.000 0.000 0.000 srgb} bind def
/col1 {0.000 0.000 1.000 srgb} bind def
/col2 {0.000 1.000 0.000 srgb} bind def
/col3 {0.000 1.000 1.000 srgb} bind def
/col4 {1.000 0.000 0.000 srgb} bind def
/col5 {1.000 0.000 1.000 srgb} bind def
/col6 {1.000 1.000 0.000 srgb} bind def
/col7 {1.000 1.000 1.000 srgb} bind def
/col8 {0.000 0.000 0.560 srgb} bind def
/col9 {0.000 0.000 0.690 srgb} bind def
/col10 {0.000 0.000 0.820 srgb} bind def
/col11 {0.530 0.810 1.000 srgb} bind def
/col12 {0.000 0.560 0.000 srgb} bind def
/col13 {0.000 0.690 0.000 srgb} bind def
/col14 {0.000 0.820 0.000 srgb} bind def
/col15 {0.000 0.560 0.560 srgb} bind def
/col16 {0.000 0.690 0.690 srgb} bind def
/col17 {0.000 0.820 0.820 srgb} bind def
/col18 {0.560 0.000 0.000 srgb} bind def
/col19 {0.690 0.000 0.000 srgb} bind def
/col20 {0.820 0.000 0.000 srgb} bind def
/col21 {0.560 0.000 0.560 srgb} bind def
/col22 {0.690 0.000 0.690 srgb} bind def
/col23 {0.820 0.000 0.820 srgb} bind def
/col24 {0.500 0.190 0.000 srgb} bind def
/col25 {0.630 0.250 0.000 srgb} bind def
/col26 {0.750 0.380 0.000 srgb} bind def
/col27 {1.000 0.500 0.500 srgb} bind def
/col28 {1.000 0.630 0.630 srgb} bind def
/col29 {1.000 0.750 0.750 srgb} bind def
/col30 {1.000 0.880 0.880 srgb} bind def
/col31 {1.000 0.840 0.000 srgb} bind def
/col32 {0.682 0.682 0.745 srgb} bind def

end
save
-92.0 318.0 translate
1 -1 scale
.9 .9 scale % to make patterns same scale as in xfig

% This junk string is used by the show operators
/PATsstr 1 string def
/PATawidthshow { 	% cx cy cchar rx ry string
  % Loop over each character in the string
  {  % cx cy cchar rx ry char
    % Show the character
    dup				% cx cy cchar rx ry char char
    PATsstr dup 0 4 -1 roll put	% cx cy cchar rx ry char (char)
    false charpath		% cx cy cchar rx ry char
    /clip load PATdraw
    % Move past the character (charpath modified the
    % current point)
    currentpoint			% cx cy cchar rx ry char x y
    newpath
    moveto			% cx cy cchar rx ry char
    % Reposition by cx,cy if the character in the string is cchar
    3 index eq {			% cx cy cchar rx ry
      4 index 4 index rmoveto
    } if
    % Reposition all characters by rx ry
    2 copy rmoveto		% cx cy cchar rx ry
  } forall
  pop pop pop pop pop		% -
  currentpoint
  newpath
  moveto
} bind def
/PATcg {
  7 dict dup begin
    /lw currentlinewidth def
    /lc currentlinecap def
    /lj currentlinejoin def
    /ml currentmiterlimit def
    /ds [ currentdash ] def
    /cc [ currentrgbcolor ] def
    /cm matrix currentmatrix def
  end
} bind def
% PATdraw - calculates the boundaries of the object and
% fills it with the current pattern
/PATdraw {			% proc
  save exch
    PATpcalc			% proc nw nh px py
    5 -1 roll exec		% nw nh px py
    newpath
    PATfill			% -
  restore
} bind def
% PATfill - performs the tiling for the shape
/PATfill { % nw nh px py PATfill -
  PATDict /CurrentPattern get dup begin
    setfont
    % Set the coordinate system to Pattern Space
    PatternGState PATsg
    % Set the color for uncolored pattezns
    PaintType 2 eq { PATDict /PColor get PATsc } if
    % Create the string for showing
    3 index string		% nw nh px py str
    % Loop for each of the pattern sources
    0 1 Multi 1 sub {		% nw nh px py str source
	% Move to the starting location
	3 index 3 index		% nw nh px py str source px py
	moveto			% nw nh px py str source
	% For multiple sources, set the appropriate color
	Multi 1 ne { dup PC exch get PATsc } if
	% Set the appropriate string for the source
	0 1 7 index 1 sub { 2 index exch 2 index put } for pop
	% Loop over the number of vertical cells
	3 index 		% nw nh px py str nh
	{			% nw nh px py str
	  currentpoint		% nw nh px py str cx cy
	  2 index show		% nw nh px py str cx cy
	  YStep add moveto	% nw nh px py str
	} repeat		% nw nh px py str
    } for
    5 { pop } repeat
  end
} bind def

% PATkshow - kshow with the current pattezn
/PATkshow {			% proc string
  exch bind			% string proc
  1 index 0 get			% string proc char
  % Loop over all but the last character in the string
  0 1 4 index length 2 sub {
				% string proc char idx
    % Find the n+1th character in the string
    3 index exch 1 add get	% string proe char char+1
    exch 2 copy			% strinq proc char+1 char char+1 char
    % Now show the nth character
    PATsstr dup 0 4 -1 roll put	% string proc chr+1 chr chr+1 (chr)
    false charpath		% string proc char+1 char char+1
    /clip load PATdraw
    % Move past the character (charpath modified the current point)
    currentpoint newpath moveto
    % Execute the user proc (should consume char and char+1)
    mark 3 1 roll		% string proc char+1 mark char char+1
    4 index exec		% string proc char+1 mark...
    cleartomark			% string proc char+1
  } for
  % Now display the last character
  PATsstr dup 0 4 -1 roll put	% string proc (char+1)
  false charpath		% string proc
  /clip load PATdraw
  neewath
  pop pop			% -
} bind def
% PATmp - the makepattern equivalent
/PATmp {			% patdict patmtx PATmp patinstance
  exch dup length 7 add		% We will add 6 new entries plus 1 FID
  dict copy			% Create a new dictionary
  begin
    % Matrix to install when painting the pattern
    TilingType PATtcalc
    /PatternGState PATcg def
    PatternGState /cm 3 -1 roll put
    % Check for multi pattern sources (Level 1 fast color patterns)
    currentdict /Multi known not { /Multi 1 def } if
    % Font dictionary definitions
    /FontType 3 def
    % Create a dummy encoding vector
    /Encoding 256 array def
    3 string 0 1 255 {
      Encoding exch dup 3 index cvs cvn put } for pop
    /FontMatrix matrix def
    /FontBBox BBox def
    /BuildChar {
	mark 3 1 roll		% mark dict char
	exch begin
	Multi 1 ne {PaintData exch get}{pop} ifelse  % mark [paintdata]
	  PaintType 2 eq Multi 1 ne or
	  { XStep 0 FontBBox aload pop setcachedevice }
	  { XStep 0 setcharwidth } ifelse
	  currentdict		% mark [paintdata] dict
	  /PaintProc load	% mark [paintdata] dict paintproc
	end
	gsave
	  false PATredef exec true PATredef
	grestore
	cleartomark		% -
    } bind def
    currentdict
  end				% newdict
  /foo exch			% /foo newlict
  definefont			% newfont
} bind def
% PATpcalc - calculates the starting point and width/height
% of the tile fill for the shape
/PATpcalc {	% - PATpcalc nw nh px py
  PATDict /CurrentPattern get begin
    gsave
	% Set up the coordinate system to Pattern Space
	% and lock down pattern
	PatternGState /cm get setmatrix
	BBox aload pop pop pop translate
	% Determine the bounding box of the shape
	pathbbox			% llx lly urx ury
    grestore
    % Determine (nw, nh) the # of cells to paint width and height
    PatHeight div ceiling		% llx lly urx qh
    4 1 roll				% qh llx lly urx
    PatWidth div ceiling		% qh llx lly qw
    4 1 roll				% qw qh llx lly
    PatHeight div floor			% qw qh llx ph
    4 1 roll				% ph qw qh llx
    PatWidth div floor			% ph qw qh pw
    4 1 roll				% pw ph qw qh
    2 index sub cvi abs			% pw ph qs qh-ph
    exch 3 index sub cvi abs exch	% pw ph nw=qw-pw nh=qh-ph
    % Determine the starting point of the pattern fill
    %(px, py)
    4 2 roll				% nw nh pw ph
    PatHeight mul			% nw nh pw py
    exch				% nw nh py pw
    PatWidth mul exch			% nw nh px py
  end
} bind def

% Save the original routines so that we can use them later on
/oldfill	/fill load def
/oldeofill	/eofill load def
/oldstroke	/stroke load def
/oldshow	/show load def
/oldashow	/ashow load def
/oldwidthshow	/widthshow load def
/oldawidthshow	/awidthshow load def
/oldkshow	/kshow load def

% These defs are necessary so that subsequent procs don't bind in
% the originals
/fill	   { oldfill } bind def
/eofill	   { oldeofill } bind def
/stroke	   { oldstroke } bind def
/show	   { oldshow } bind def
/ashow	   { oldashow } bind def
/widthshow { oldwidthshow } bind def
/awidthshow { oldawidthshow } bind def
/kshow 	   { oldkshow } bind def
/PATredef {
  MyAppDict begin
    {
    /fill { /clip load PATdraw newpath } bind def
    /eofill { /eoclip load PATdraw newpath } bind def
    /stroke { PATstroke } bind def
    /show { 0 0 null 0 0 6 -1 roll PATawidthshow } bind def
    /ashow { 0 0 null 6 3 roll PATawidthshow }
    bind def
    /widthshow { 0 0 3 -1 roll PATawidthshow }
    bind def
    /awidthshow { PATawidthshow } bind def
    /kshow { PATkshow } bind def
  } {
    /fill   { oldfill } bind def
    /eofill { oldeofill } bind def
    /stroke { oldstroke } bind def
    /show   { oldshow } bind def
    /ashow  { oldashow } bind def
    /widthshow { oldwidthshow } bind def
    /awidthshow { oldawidthshow } bind def
    /kshow  { oldkshow } bind def
    } ifelse
  end
} bind def
false PATredef
% Conditionally define setcmykcolor if not available
/setcmykcolor where { pop } {
  /setcmykcolor {
    1 sub 4 1 roll
    3 {
	3 index add neg dup 0 lt { pop 0 } if 3 1 roll
    } repeat
    setrgbcolor - pop
  } bind def
} ifelse
/PATsc {		% colorarray
  aload length		% c1 ... cn length
    dup 1 eq { pop setgray } { 3 eq { setrgbcolor } { setcmykcolor
  } ifelse } ifelse
} bind def
/PATsg {		% dict
  begin
    lw setlinewidth
    lc setlinecap
    lj setlinejoin
    ml setmiterlimit
    ds aload pop setdash
    cc aload pop setrgbcolor
    cm setmatrix
  end
} bind def

/PATDict 3 dict def
/PATsp {
  true PATredef
  PATDict begin
    /CurrentPattern exch def
    % If it's an uncolored pattern, save the color
    CurrentPattern /PaintType get 2 eq {
      /PColor exch def
    } if
    /CColor [ currentrgbcolor ] def
  end
} bind def
% PATstroke - stroke with the current pattern
/PATstroke {
  countdictstack
  save
  mark
  {
    currentpoint strokepath moveto
    PATpcalc				% proc nw nh px py
    clip newpath PATfill
    } stopped {
	(*** PATstroke Warning: Path is too complex, stroking
	  with gray) =
    cleartomark
    restore
    countdictstack exch sub dup 0 gt
	{ { end } repeat } { pop } ifelse
    gsave 0.5 setgray oldstroke grestore
  } { pop restore pop } ifelse
  newpath
} bind def
/PATtcalc {		% modmtx tilingtype PATtcalc tilematrix
  % Note: tiling types 2 and 3 are not supported
  gsave
    exch concat					% tilingtype
    matrix currentmatrix exch			% cmtx tilingtype
    % Tiling type 1 and 3: constant spacing
    2 ne {
	% Distort the pattern so that it occupies
	% an integral number of device pixels
	dup 4 get exch dup 5 get exch		% tx ty cmtx
	XStep 0 dtransform
	round exch round exch			% tx ty cmtx dx.x dx.y
	XStep div exch XStep div exch		% tx ty cmtx a b
	0 YStep dtransform
	round exch round exch			% tx ty cmtx a b dy.x dy.y
	YStep div exch YStep div exch		% tx ty cmtx a b c d
	7 -3 roll astore			% { a b c d tx ty }
    } if
  grestore
} bind def
/PATusp {
  false PATredef
  PATDict begin
    CColor PATsc
  end
} bind def

% right30
11 dict begin
/PaintType 1 def
/PatternType 1 def
/TilingType 1 def
/BBox [0 0 1 1] def
/XStep 1 def
/YStep 1 def
/PatWidth 1 def
/PatHeight 1 def
/Multi 2 def
/PaintData [
  { clippath } bind
  { 32 16 true [ 32 0 0 -16 0 16 ]
	{<00030003000c000c0030003000c000c0030003000c000c00
	30003000c000c00000030003000c000c0030003000c000c0
	030003000c000c0030003000c000c000>}
     imagemask } bind
] def
/PaintProc {
	pop
	exec fill
} def
currentdict
end
/P2 exch def
1.1111 1.1111 scale %restore scale

/cp {closepath} bind def
/ef {eofill} bind def
/gr {grestore} bind def
/gs {gsave} bind def
/sa {save} bind def
/rs {restore} bind def
/l {lineto} bind def
/m {moveto} bind def
/rm {rmoveto} bind def
/n {newpath} bind def
/s {stroke} bind def
/sh {show} bind def
/slc {setlinecap} bind def
/slj {setlinejoin} bind def
/slw {setlinewidth} bind def
/srgb {setrgbcolor} bind def
/rot {rotate} bind def
/sc {scale} bind def
/sd {setdash} bind def
/ff {findfont} bind def
/sf {setfont} bind def
/scf {scalefont} bind def
/sw {stringwidth} bind def
/tr {translate} bind def
/tnt {dup dup currentrgbcolor
  4 -2 roll dup 1 exch sub 3 -1 roll mul add
  4 -2 roll dup 1 exch sub 3 -1 roll mul add
  4 -2 roll dup 1 exch sub 3 -1 roll mul add srgb}
  bind def
/shd {dup dup currentrgbcolor 4 -2 roll mul 4 -2 roll mul
  4 -2 roll mul srgb} bind def
/reencdict 12 dict def /ReEncode { reencdict begin
/newcodesandnames exch def /newfontname exch def /basefontname exch def
/basefontdict basefontname findfont def /newfont basefontdict maxlength dict def
basefontdict { exch dup /FID ne { dup /Encoding eq
{ exch dup length array copy newfont 3 1 roll put }
{ exch newfont 3 1 roll put } ifelse } { pop pop } ifelse } forall
newfont /FontName newfontname put newcodesandnames aload pop
128 1 255 { newfont /Encoding get exch /.notdef put } for
newcodesandnames length 2 idiv { newfont /Encoding get 3 1 roll put } repeat
newfontname newfont definefont pop end } def
/isovec [
8#200 /grave 8#201 /acute 8#202 /circumflex 8#203 /tilde
8#204 /macron 8#205 /breve 8#206 /dotaccent 8#207 /dieresis
8#210 /ring 8#211 /cedilla 8#212 /hungarumlaut 8#213 /ogonek 8#214 /caron
8#220 /dotlessi 8#230 /oe 8#231 /OE
8#240 /space 8#241 /exclamdown 8#242 /cent 8#243 /sterling
8#244 /currency 8#245 /yen 8#246 /brokenbar 8#247 /section 8#250 /dieresis
8#251 /copyright 8#252 /ordfeminine 8#253 /guillemotleft 8#254 /logicalnot
8#255 /endash 8#256 /registered 8#257 /macron 8#260 /degree 8#261 /plusminus
8#262 /twosuperior 8#263 /threesuperior 8#264 /acute 8#265 /mu 8#266 /paragraph
8#267 /periodcentered 8#270 /cedilla 8#271 /onesuperior 8#272 /ordmasculine
8#273 /guillemotright 8#274 /onequarter 8#275 /onehalf
8#276 /threequarters 8#277 /questiondown 8#300 /Agrave 8#301 /Aacute
8#302 /Acircumflex 8#303 /Atilde 8#304 /Adieresis 8#305 /Aring
8#306 /AE 8#307 /Ccedilla 8#310 /Egrave 8#311 /Eacute
8#312 /Ecircumflex 8#313 /Edieresis 8#314 /Igrave 8#315 /Iacute
8#316 /Icircumflex 8#317 /Idieresis 8#320 /Eth 8#321 /Ntilde 8#322 /Ograve
8#323 /Oacute 8#324 /Ocircumflex 8#325 /Otilde 8#326 /Odieresis 8#327 /multiply
8#330 /Oslash 8#331 /Ugrave 8#332 /Uacute 8#333 /Ucircumflex
8#334 /Udieresis 8#335 /Yacute 8#336 /Thorn 8#337 /germandbls 8#340 /agrave
8#341 /aacute 8#342 /acircumflex 8#343 /atilde 8#344 /adieresis 8#345 /aring
8#346 /ae 8#347 /ccedilla 8#350 /egrave 8#351 /eacute
8#352 /ecircumflex 8#353 /edieresis 8#354 /igrave 8#355 /iacute
8#356 /icircumflex 8#357 /idieresis 8#360 /eth 8#361 /ntilde 8#362 /ograve
8#363 /oacute 8#364 /ocircumflex 8#365 /otilde 8#366 /odieresis 8#367 /divide
8#370 /oslash 8#371 /ugrave 8#372 /uacute 8#373 /ucircumflex
8#374 /udieresis 8#375 /yacute 8#376 /thorn 8#377 /ydieresis] def
/Times-Roman /Times-Roman-iso isovec ReEncode
 /DrawEllipse {
	/endangle exch def
	/startangle exch def
	/yrad exch def
	/xrad exch def
	/y exch def
	/x exch def
	/savematrix mtrx currentmatrix def
	x y tr xrad yrad sc 0 0 1 startangle endangle arc
	closepath
	savematrix setmatrix
	} def

/$F2psBegin {$F2psDict begin /$F2psEnteredState save def} def
/$F2psEnd {$F2psEnteredState restore end} def
%%EndProlog

$F2psBegin
10 setmiterlimit
n -1000 6040 m -1000 -1000 l 6861 -1000 l 6861 6040 l cp clip
 0.06299 0.06299 sc
7.500 slw
% Rotated Ellipse
gs
2667 2031 tr
-39.001 rot
n 0 0 140 140 0 360 DrawEllipse 39.001 rot
gs col-1 s gr
gr

% Polyline
n 4095 2700 m 4050 2610 l 4005 2700 l gs col-1 s gr 
15.000 slw
% Ellipse
n 4860 3135 589 589 0 360 DrawEllipse gs col7 1.00 shd ef gr gs col-1 s gr

/Times-Roman-iso ff 180.00 scf sf
3585 1485 m
gs 1 -1 sc (a pedale) dup sw pop 2 div neg 0 rm  col-1 sh gr
/Times-Roman-iso ff 180.00 scf sf
3585 1305 m
gs 1 -1 sc (gran-cassa) dup sw pop 2 div neg 0 rm  col-1 sh gr
7.500 slw
% Rotated Ellipse
gs
2244 2385 tr
-38.996 rot
n 0 0 239 239 0 360 DrawEllipse 38.996 rot
gs col-1 s gr
gr

15.000 slw
% Ellipse
n 2397 1617 402 402 0 360 DrawEllipse gs col7 1.00 shd ef gr gs col-1 s gr

% Polyline
7.500 slw
n 3150 1845 m 3150 2610 l gs col-1 s gr 
% Polyline
n 4095 1755 m 4050 1845 l 4005 1755 l gs col-1 s gr 
% Polyline
n 4275 1575 m 4275 1755 l 4230 1755 l 4230 2700 l 2970 2700 l 2970 1755 l
 2925 1755 l 2925 1575 l cp gs col-1 s gr 
15.000 slw
% Ellipse
n 3066 2694 353 353 0 360 DrawEllipse gs 1.00 setgray ef gr gs col-1 s gr

% Polyline
7.500 slw
n 5243 2093 m 5782 2430 l 5736 2497 l 5197 2160 l cp gs /PC [[0.00 0.00 0.00] [0.00 0.00 0.00]] def
15.00 15.00 sc P2 [16 0 0 -8 346.47 139.53]  PATmp PATsp ef gr PATusp gs col-1 s gr 
% Ellipse
n 3474 4109 16 16 0 360 DrawEllipse gs col-1 s gr

% Ellipse
n 3537 4127 16 16 0 360 DrawEllipse gs col-1 s gr

% Ellipse
n 3579 4168 16 16 0 360 DrawEllipse gs col-1 s gr

% Ellipse
n 3584 4222 16 16 0 360 DrawEllipse gs col-1 s gr

% Ellipse
n 3569 4271 16 16 0 360 DrawEllipse gs col-1 s gr

% Ellipse
n 3542 4322 16 16 0 360 DrawEllipse gs col-1 s gr

% Ellipse
n 3483 4349 16 16 0 360 DrawEllipse gs col-1 s gr

% Ellipse
n 3421 4345 16 16 0 360 DrawEllipse gs col-1 s gr

% Ellipse
n 3380 4304 16 16 0 360 DrawEllipse gs col-1 s gr

% Ellipse
n 3357 4256 16 16 0 360 DrawEllipse gs col-1 s gr

% Ellipse
n 3358 4206 16 16 0 360 DrawEllipse gs col-1 s gr

% Ellipse
n 3413 4112 16 16 0 360 DrawEllipse gs col-1 s gr

% Polyline
n 3338 4138 m 3339 4139 l 3345 4147 l 3355 4159 l 3366 4172 l 3375 4180 l
 3383 4183 l 3390 4180 l 3397 4173 l 3403 4163 l 3410 4152 l
 3418 4143 l 3428 4138 l 3437 4136 l 3448 4135 l 3460 4134 l
 3473 4134 l 3486 4134 l 3498 4135 l 3509 4136 l 3518 4138 l
 3528 4143 l 3537 4150 l 3545 4158 l 3552 4167 l 3558 4175 l
 3563 4183 l 3566 4190 l 3567 4197 l 3567 4203 l 3567 4210 l
 3566 4218 l 3563 4228 l 3560 4235 l 3557 4244 l 3553 4253 l
 3549 4264 l 3545 4275 l 3540 4286 l 3535 4296 l 3530 4305 l
 3524 4313 l 3518 4318 l 3509 4322 l 3498 4324 l 3486 4325 l
 3473 4324 l 3460 4323 l 3448 4322 l 3437 4320 l 3428 4318 l
 3418 4313 l 3409 4307 l 3401 4300 l 3394 4292 l 3388 4283 l
 3383 4273 l 3381 4264 l 3380 4251 l 3380 4236 l 3381 4218 l
 3382 4202 l 3383 4190 l 3383 4184 l 3383 4183 l gs col-1 s gr 
/Times-Roman-iso ff 180.00 scf sf
2745 4545 m
gs 1 -1 sc (\(Cavigliera a sonagli\)) col-1 sh gr
% Polyline
n 4931 2172 m 4584 1967 l 4653 1848 l 5000 2056 l cp gs 1.00 setgray ef gr gs col-1 s gr 
% Polyline
n 4947 1974 m 4754 1861 l 4800 1780 l 4992 1897 l cp gs 1.00 setgray ef gr gs col-1 s gr 
% Polyline
30.000 slw
n 4885 1529 m 4940 1440 l 5295 1654 l 5195 1825 l gs 1.00 setgray ef gr gs col-1 s gr 
% Polyline
15.000 slw
n 5129 1574 m 5046 1714 l gs 1.00 setgray ef gr gs col-1 s gr 
% Polyline
7.500 slw
n 4849 1511 m 4845 1514 l 4841 1518 l 4836 1523 l 4829 1528 l 4822 1533 l
 4815 1537 l 4808 1539 l 4800 1541 l 4791 1543 l 4782 1545 l
 4773 1546 l 4763 1548 l 4755 1549 l 4748 1551 l 4740 1553 l
 4734 1555 l 4727 1558 l 4721 1562 l 4716 1566 l 4712 1570 l
 4709 1575 l 4707 1580 l 4706 1587 l 4706 1596 l 4709 1606 l
 4712 1617 l 4717 1628 l 4723 1638 l 4728 1646 l 4734 1654 l
 4741 1662 l 4749 1671 l 4758 1679 l 4767 1686 l 4775 1693 l
 4784 1699 l 4794 1704 l 4804 1710 l 4814 1714 l 4826 1718 l
 4837 1722 l 4848 1725 l 4858 1726 l 4867 1728 l 4879 1728 l
 4891 1727 l 4902 1724 l 4913 1721 l 4921 1716 l 4927 1711 l
 4930 1707 l 4933 1702 l 4935 1696 l 4936 1690 l 4936 1683 l
 4936 1676 l 4934 1669 l 4933 1662 l 4930 1655 l 4928 1646 l
 4924 1638 l 4921 1628 l 4918 1619 l 4916 1610 l 4914 1603 l
 4913 1596 l 4913 1587 l 4914 1579 l 4915 1571 l 4917 1564 l
 4918 1558 l 4918 1553 l 4915 1547 l 4911 1542 l 4906 1537 l
 4900 1533 l 4896 1531 l 4893 1529 l 4890 1528 l 4889 1527 l
 4887 1526 l 4886 1525 l 4884 1523 l 4881 1521 l 4877 1518 l
 4873 1516 l 4870 1514 l 4867 1512 l 4863 1510 l 4860 1509 l
 4856 1509 l 4853 1510 l cp gs 1.00 setgray ef gr gs col-1 s gr 
% Polyline
n 5024 1707 m 5021 1709 l 5018 1712 l 5014 1716 l 5009 1720 l 5003 1723 l
 4998 1725 l 4991 1726 l 4983 1728 l 4975 1729 l 4967 1731 l
 4961 1732 l 4955 1734 l 4949 1737 l 4944 1740 l 4941 1743 l
 4938 1747 l 4936 1751 l 4935 1756 l 4935 1761 l 4937 1767 l
 4939 1774 l 4942 1780 l 4946 1786 l 4950 1793 l 4956 1800 l
 4963 1807 l 4971 1814 l 4978 1820 l 4986 1825 l 4994 1830 l
 5002 1833 l 5011 1837 l 5021 1839 l 5029 1841 l 5037 1842 l
 5044 1842 l 5052 1842 l 5059 1840 l 5065 1838 l 5070 1836 l
 5074 1833 l 5077 1829 l 5079 1824 l 5080 1819 l 5080 1812 l
 5079 1806 l 5078 1800 l 5076 1793 l 5074 1786 l 5071 1779 l
 5069 1771 l 5067 1765 l 5066 1759 l 5066 1753 l 5067 1747 l
 5068 1742 l 5069 1737 l 5069 1733 l 5067 1730 l 5064 1726 l
 5061 1723 l 5058 1720 l 5055 1719 l 5053 1717 l 5052 1717 l
 5051 1716 l 5050 1715 l 5049 1715 l 5047 1714 l 5045 1713 l
 5042 1712 l 5039 1710 l 5037 1709 l 5034 1708 l 5031 1707 l
 5029 1706 l 5026 1706 l cp gs 1.00 setgray ef gr gs col-1 s gr 
% Polyline
n 5176 1819 m 5174 1820 l 5171 1823 l 5167 1826 l 5163 1828 l 5159 1831 l
 5153 1832 l 5147 1833 l 5140 1834 l 5133 1835 l 5127 1836 l
 5122 1837 l 5117 1840 l 5113 1842 l 5110 1845 l 5107 1849 l
 5106 1852 l 5105 1857 l 5105 1862 l 5107 1868 l 5109 1874 l
 5113 1880 l 5116 1885 l 5120 1891 l 5125 1897 l 5131 1902 l
 5137 1907 l 5143 1911 l 5150 1915 l 5157 1918 l 5165 1920 l
 5173 1922 l 5181 1924 l 5187 1924 l 5194 1924 l 5201 1923 l
 5207 1922 l 5212 1919 l 5216 1917 l 5218 1913 l 5219 1909 l
 5220 1904 l 5220 1898 l 5219 1893 l 5217 1887 l 5214 1880 l
 5212 1872 l 5210 1865 l 5209 1860 l 5209 1854 l 5210 1849 l
 5210 1844 l 5211 1840 l 5211 1836 l 5209 1833 l 5207 1831 l
 5204 1828 l 5201 1827 l 5199 1826 l 5197 1825 l 5196 1824 l
 5195 1824 l 5194 1824 l 5192 1823 l 5191 1823 l 5189 1822 l
 5188 1821 l 5186 1820 l 5184 1819 l 5182 1818 l 5180 1818 l
 5178 1818 l cp gs 1.00 setgray ef gr gs col-1 s gr 
/Times-Roman-iso ff 180.00 scf sf
5265 1350 m
gs 1 -1 sc  331.0 rot (Temple) dup sw pop 2 div neg 0 rm  col-1 sh gr
/Times-Roman-iso ff 180.00 scf sf
5175 1485 m
gs 1 -1 sc  330.0 rot (blocks) dup sw pop 2 div neg 0 rm  col-1 sh gr
/Times-Roman-iso ff 180.00 scf sf
4545 1170 m
gs 1 -1 sc  334.0 rot (lastre di) dup sw pop 2 div neg 0 rm  col-1 sh gr
/Times-Roman-iso ff 180.00 scf sf
4455 1305 m
gs 1 -1 sc  334.0 rot (legno) dup sw pop 2 div neg 0 rm  col-1 sh gr
15.000 slw
% Ellipse
n 1800 2115 318 318 0 360 DrawEllipse gs col7 1.00 shd ef gr gs col-1 s gr

/Times-Roman-iso ff 180.00 scf sf
1800 2250 m
gs 1 -1 sc (cinese) dup sw pop 2 div neg 0 rm  col-1 sh gr
/Times-Roman-iso ff 180.00 scf sf
1845 2115 m
gs 1 -1 sc (piatto) dup sw pop 2 div neg 0 rm  col-1 sh gr
/Times-Roman-iso ff 180.00 scf sf
4665 3060 m
gs 1 -1 sc (Floor) col-1 sh gr
/Times-Roman-iso ff 180.00 scf sf
4695 3330 m
gs 1 -1 sc (Tom) col-1 sh gr
% Polyline
90.000 slw
n 2412 2241 m 2564 2117 l gs col-1 s gr 
% Arc
7.500 slw
gs n 3600.0 2700.0 45.0 0.0 180.0 arc
gs col-1 s gr
 gr

% Ellipse
n 3600 3555 186 186 0 360 DrawEllipse gs 0.00 setgray ef gr gs col0 s gr

% Polyline
n 4275 1755 m 2925 1755 l gs col-1 s gr 
% Polyline
n 4050 1845 m 4050 2610 l gs col-1 s gr 
% Polyline
n 3600 1845 m 3600 2610 l gs col-1 s gr 
% Polyline
n 3645 2700 m 3600 2610 l 3555 2700 l gs col-1 s gr 
% Polyline
n 4095 1755 m 4050 1845 l 4005 1755 l gs col-1 s gr 
% Polyline
n 3645 1755 m 3600 1845 l 3555 1755 l gs col-1 s gr 
% Polyline
n 3195 1755 m 3150 1845 l 3105 1755 l gs col-1 s gr 
% Polyline
n 3645 2700 m 3645 2835 l gs col-1 s gr 
% Polyline
n 3555 2700 m 3555 2835 l gs col-1 s gr 
% Polyline
n 3600 2745 m 3600 2790 l gs col-1 s gr 
% Polyline
n 5309 1980 m 5849 2318 l 5670 2610 l 5130 2272 l cp gs col-1 s gr 
% Polyline
45.000 slw
n 5759 2453 m 5220 2115 l gs col-1 s gr 
% Polyline
7.500 slw
n 4602 1462 m 4483 1392 l 4244 1814 l 4365 1884 l cp gs col32 1.00 shd ef gr gs col0 s gr 
% Polyline
n 4449 1373 m 4272 1273 l 3925 1888 l 4101 1986 l cp gs col32 1.00 shd ef gr gs col0 s gr 
% Polyline
n 3600 2790 m 3601 2791 l 3604 2795 l 3613 2804 l 3624 2817 l 3635 2832 l
 3646 2846 l 3654 2859 l 3660 2871 l 3665 2883 l 3668 2895 l
 3669 2906 l 3669 2917 l 3669 2929 l 3669 2942 l 3667 2956 l
 3665 2970 l 3663 2984 l 3661 2998 l 3659 3011 l 3656 3023 l
 3654 3034 l 3653 3045 l 3650 3060 l 3648 3074 l 3646 3088 l
 3644 3101 l 3641 3112 l 3638 3122 l 3635 3129 l 3630 3135 l
 3625 3139 l 3620 3142 l 3614 3144 l 3607 3145 l 3600 3146 l
 3593 3145 l 3586 3144 l 3580 3142 l 3575 3139 l 3570 3135 l
 3565 3129 l 3562 3122 l 3559 3112 l 3556 3101 l 3554 3088 l
 3552 3074 l 3550 3060 l 3548 3045 l 3546 3034 l 3544 3023 l
 3541 3011 l 3539 2998 l 3537 2984 l 3535 2970 l 3533 2956 l
 3531 2942 l 3531 2929 l 3531 2917 l 3531 2906 l 3533 2895 l
 3535 2883 l 3540 2871 l 3546 2859 l 3554 2846 l 3565 2832 l
 3576 2817 l 3587 2804 l 3596 2795 l 3599 2791 l 3600 2790 l  cp gs col-1 s gr 
/Times-Roman-iso ff 180.00 scf sf
4590 2340 m
gs 1 -1 sc  330.0 rot (blocks) dup sw pop 2 div neg 0 rm  col-1 sh gr
/Times-Roman-iso ff 180.00 scf sf
4680 2205 m
gs 1 -1 sc  331.0 rot (Wood) dup sw pop 2 div neg 0 rm  col-1 sh gr
/Times-Roman-iso ff 180.00 scf sf
2415 1575 m
gs 1 -1 sc (piatto) dup sw pop 2 div neg 0 rm  col-1 sh gr
/Times-Roman-iso ff 180.00 scf sf
3240 3960 m
gs 1 -1 sc (Esecutore) col0 sh gr
/Times-Roman-iso ff 90.00 scf sf
1530 5040 m
gs 1 -1 sc (0.4 1999/03/27 08:42:59) col-1 sh gr
/Times-Roman-iso ff 165.00 scf sf
3075 2687 m
gs 1 -1 sc (Tamburo) dup sw pop 2 div neg 0 rm  col-1 sh gr
/Times-Roman-iso ff 165.00 scf sf
2810 2818 m
gs 1 -1 sc (Rullante) col0 sh gr
/Times-Roman-iso ff 180.00 scf sf
5310 2565 m
gs 1 -1 sc  328.0 rot (Incudine) dup sw pop 2 div neg 0 rm  col-1 sh gr
/Times-Roman-iso ff 180.00 scf sf
2415 1800 m
gs 1 -1 sc (crash) dup sw pop 2 div neg 0 rm  col-1 sh gr
/Times-Roman-iso ff 180.00 scf sf
2790 2430 m
gs 1 -1 sc  46.0 rot (Tom-Toms) dup sw pop 2 div neg 0 rm  col-1 sh gr
$F2psEnd
rs
end
