%!PS-Adobe-2.0 EPSF-2.0
%%Title: key-clicks.eps
%%Creator: fig2dev Version 3.2 Patchlevel 0-beta3
%%CreationDate: Sun May 24 22:25:01 1998
%%For: nicb@ax-nicb.axnet.it (Nicola Bernardini)
%%Orientation: Portrait
%%BoundingBox: 0 0 103 28
%%Pages: 0
%%BeginSetup
%%EndSetup
%%Magnification: 1.0000
%%EndComments
/$F2psDict 200 dict def
$F2psDict begin
$F2psDict /mtrx matrix put
/col-1 {0 setgray} bind def
/col0 {0.000 0.000 0.000 srgb} bind def
/col1 {0.000 0.000 1.000 srgb} bind def
/col2 {0.000 1.000 0.000 srgb} bind def
/col3 {0.000 1.000 1.000 srgb} bind def
/col4 {1.000 0.000 0.000 srgb} bind def
/col5 {1.000 0.000 1.000 srgb} bind def
/col6 {1.000 1.000 0.000 srgb} bind def
/col7 {1.000 1.000 1.000 srgb} bind def
/col8 {0.000 0.000 0.560 srgb} bind def
/col9 {0.000 0.000 0.690 srgb} bind def
/col10 {0.000 0.000 0.820 srgb} bind def
/col11 {0.530 0.810 1.000 srgb} bind def
/col12 {0.000 0.560 0.000 srgb} bind def
/col13 {0.000 0.690 0.000 srgb} bind def
/col14 {0.000 0.820 0.000 srgb} bind def
/col15 {0.000 0.560 0.560 srgb} bind def
/col16 {0.000 0.690 0.690 srgb} bind def
/col17 {0.000 0.820 0.820 srgb} bind def
/col18 {0.560 0.000 0.000 srgb} bind def
/col19 {0.690 0.000 0.000 srgb} bind def
/col20 {0.820 0.000 0.000 srgb} bind def
/col21 {0.560 0.000 0.560 srgb} bind def
/col22 {0.690 0.000 0.690 srgb} bind def
/col23 {0.820 0.000 0.820 srgb} bind def
/col24 {0.500 0.190 0.000 srgb} bind def
/col25 {0.630 0.250 0.000 srgb} bind def
/col26 {0.750 0.380 0.000 srgb} bind def
/col27 {1.000 0.500 0.500 srgb} bind def
/col28 {1.000 0.630 0.630 srgb} bind def
/col29 {1.000 0.750 0.750 srgb} bind def
/col30 {1.000 0.880 0.880 srgb} bind def
/col31 {1.000 0.840 0.000 srgb} bind def

end
save
-27.0 77.0 translate
1 -1 scale

/cp {closepath} bind def
/ef {eofill} bind def
/gr {grestore} bind def
/gs {gsave} bind def
/sa {save} bind def
/rs {restore} bind def
/l {lineto} bind def
/m {moveto} bind def
/rm {rmoveto} bind def
/n {newpath} bind def
/s {stroke} bind def
/sh {show} bind def
/slc {setlinecap} bind def
/slj {setlinejoin} bind def
/slw {setlinewidth} bind def
/srgb {setrgbcolor} bind def
/rot {rotate} bind def
/sc {scale} bind def
/sd {setdash} bind def
/ff {findfont} bind def
/sf {setfont} bind def
/scf {scalefont} bind def
/sw {stringwidth} bind def
/tr {translate} bind def
/tnt {dup dup currentrgbcolor
  4 -2 roll dup 1 exch sub 3 -1 roll mul add
  4 -2 roll dup 1 exch sub 3 -1 roll mul add
  4 -2 roll dup 1 exch sub 3 -1 roll mul add srgb}
  bind def
/shd {dup dup currentrgbcolor 4 -2 roll mul 4 -2 roll mul
  4 -2 roll mul srgb} bind def
/$F2psBegin {$F2psDict begin /$F2psEnteredState save def} def
/$F2psEnd {$F2psEnteredState restore end} def
%%EndProlog

$F2psBegin
10 setmiterlimit
n -1000 2212 m -1000 -1000 l 3056 -1000 l 3056 2212 l cp clip
 0.06299 0.06299 sc
% Polyline
7.500 slw
n 678 1143 m 622 1200 l gs col0 s gr 
% Polyline
n 622 1145 m 675 1198 l gs col0 s gr 
% Polyline
n 753 1094 m 697 1151 l gs col0 s gr 
% Polyline
n 697 1096 m 750 1149 l gs col0 s gr 
% Polyline
n 675 810 m 675 1151 l gs col0 s gr 
% Polyline
n 751 811 m 751 1105 l gs col0 s gr 
% Polyline
n 825 1143 m 769 1200 l gs col0 s gr 
% Polyline
n 769 1145 m 822 1198 l gs col0 s gr 
% Polyline
n 900 1094 m 844 1151 l gs col0 s gr 
% Polyline
n 844 1096 m 897 1149 l gs col0 s gr 
% Polyline
n 822 810 m 822 1151 l gs col0 s gr 
% Polyline
n 898 811 m 898 1105 l gs col0 s gr 
% Polyline
n 450 1125 m 2025 1125 l gs col0 s gr 
% Polyline
n 450 1170 m 2025 1170 l gs col0 s gr 
% Polyline
2 slc
15.000 slw
n 684 810 m 2034 810 l gs col0 s gr 
% Polyline
n 684 850 m 2034 850 l gs col0 s gr 
% Polyline
n 684 891 m 2034 891 l gs col0 s gr 
% Polyline
0 slc
7.500 slw
n 1035 990 m 1036 990 l 1040 988 l 1050 983 l 1065 977 l 1085 969 l
 1105 961 l 1124 954 l 1141 949 l 1156 946 l 1170 945 l
 1184 946 l 1197 949 l 1211 954 l 1224 960 l 1238 968 l
 1251 975 l 1265 981 l 1278 986 l 1292 989 l 1305 990 l
 1319 989 l 1334 986 l 1351 981 l 1370 974 l 1391 966 l
 1410 958 l 1425 952 l 1435 947 l 1439 945 l 1440 945 l gs col0 s gr 
% Polyline
n 1035 1035 m 1036 1035 l 1040 1033 l 1050 1028 l 1065 1022 l 1085 1014 l
 1105 1006 l 1124 999 l 1141 994 l 1156 991 l 1170 990 l
 1184 991 l 1197 994 l 1211 999 l 1224 1005 l 1238 1013 l
 1251 1020 l 1265 1026 l 1278 1031 l 1292 1034 l 1305 1035 l
 1319 1034 l 1334 1031 l 1351 1026 l 1370 1019 l 1391 1011 l
 1410 1003 l 1425 997 l 1435 992 l 1439 990 l 1440 990 l gs col0 s gr 
$F2psEnd
rs
