%!PS-Adobe-2.0 EPSF-2.0
%%Title: key-clicks-flute.eps
%%Creator: fig2dev Version 3.2 Patchlevel 0-beta3
%%CreationDate: Mon May 25 23:57:11 1998
%%For: nicb@ax-nicb.axnet.it (Nicola Bernardini)
%%Orientation: Portrait
%%BoundingBox: 0 0 105 329
%%Pages: 0
%%BeginSetup
%%EndSetup
%%Magnification: 1.0000
%%EndComments
/$F2psDict 200 dict def
$F2psDict begin
$F2psDict /mtrx matrix put
/col-1 {0 setgray} bind def
/col0 {0.000 0.000 0.000 srgb} bind def
/col1 {0.000 0.000 1.000 srgb} bind def
/col2 {0.000 1.000 0.000 srgb} bind def
/col3 {0.000 1.000 1.000 srgb} bind def
/col4 {1.000 0.000 0.000 srgb} bind def
/col5 {1.000 0.000 1.000 srgb} bind def
/col6 {1.000 1.000 0.000 srgb} bind def
/col7 {1.000 1.000 1.000 srgb} bind def
/col8 {0.000 0.000 0.560 srgb} bind def
/col9 {0.000 0.000 0.690 srgb} bind def
/col10 {0.000 0.000 0.820 srgb} bind def
/col11 {0.530 0.810 1.000 srgb} bind def
/col12 {0.000 0.560 0.000 srgb} bind def
/col13 {0.000 0.690 0.000 srgb} bind def
/col14 {0.000 0.820 0.000 srgb} bind def
/col15 {0.000 0.560 0.560 srgb} bind def
/col16 {0.000 0.690 0.690 srgb} bind def
/col17 {0.000 0.820 0.820 srgb} bind def
/col18 {0.560 0.000 0.000 srgb} bind def
/col19 {0.690 0.000 0.000 srgb} bind def
/col20 {0.820 0.000 0.000 srgb} bind def
/col21 {0.560 0.000 0.560 srgb} bind def
/col22 {0.690 0.000 0.690 srgb} bind def
/col23 {0.820 0.000 0.820 srgb} bind def
/col24 {0.500 0.190 0.000 srgb} bind def
/col25 {0.630 0.250 0.000 srgb} bind def
/col26 {0.750 0.380 0.000 srgb} bind def
/col27 {1.000 0.500 0.500 srgb} bind def
/col28 {1.000 0.630 0.630 srgb} bind def
/col29 {1.000 0.750 0.750 srgb} bind def
/col30 {1.000 0.880 0.880 srgb} bind def
/col31 {1.000 0.840 0.000 srgb} bind def

end
save
-55.0 356.0 translate
1 -1 scale

/cp {closepath} bind def
/ef {eofill} bind def
/gr {grestore} bind def
/gs {gsave} bind def
/sa {save} bind def
/rs {restore} bind def
/l {lineto} bind def
/m {moveto} bind def
/rm {rmoveto} bind def
/n {newpath} bind def
/s {stroke} bind def
/sh {show} bind def
/slc {setlinecap} bind def
/slj {setlinejoin} bind def
/slw {setlinewidth} bind def
/srgb {setrgbcolor} bind def
/rot {rotate} bind def
/sc {scale} bind def
/sd {setdash} bind def
/ff {findfont} bind def
/sf {setfont} bind def
/scf {scalefont} bind def
/sw {stringwidth} bind def
/tr {translate} bind def
/tnt {dup dup currentrgbcolor
  4 -2 roll dup 1 exch sub 3 -1 roll mul add
  4 -2 roll dup 1 exch sub 3 -1 roll mul add
  4 -2 roll dup 1 exch sub 3 -1 roll mul add srgb}
  bind def
/shd {dup dup currentrgbcolor 4 -2 roll mul 4 -2 roll mul
  4 -2 roll mul srgb} bind def
 /DrawEllipse {
	/endangle exch def
	/startangle exch def
	/yrad exch def
	/xrad exch def
	/y exch def
	/x exch def
	/savematrix mtrx currentmatrix def
	x y tr xrad yrad sc 0 0 1 startangle endangle arc
	closepath
	savematrix setmatrix
	} def

/$F2psBegin {$F2psDict begin /$F2psEnteredState save def} def
/$F2psEnd {$F2psEnteredState restore end} def
%%EndProlog

$F2psBegin
10 setmiterlimit
n -1000 6637 m -1000 -1000 l 3532 -1000 l 3532 6637 l cp clip
 0.06299 0.06299 sc
% Polyline
7.500 slw
n 1256 2614 m 1252 2624 l 1244 2630 l 1234 2634 l 1222 2636 l 1210 2638 l
 1199 2641 l 1190 2645 l 1182 2651 l 1176 2658 l 1170 2667 l
 1165 2676 l 1161 2685 l 1156 2695 l 1152 2704 l 1149 2714 l
 1146 2723 l 1144 2732 l 1143 2742 l 1142 2752 l 1141 2762 l
 1140 2772 l 1141 2782 l 1143 2790 l 1146 2798 l 1152 2805 l
 1160 2811 l 1170 2816 l 1181 2822 l 1192 2827 l 1202 2831 l
 1211 2834 l 1219 2835 l 1225 2834 l 1231 2831 l 1236 2827 l
 1241 2822 l 1245 2816 l 1250 2811 l 1253 2805 l 1256 2798 l
 1258 2790 l 1258 2782 l 1256 2773 l 1254 2764 l 1252 2754 l
 1252 2744 l 1253 2734 l 1256 2723 l 1260 2713 l 1267 2703 l
 1275 2693 l 1284 2681 l 1294 2670 l 1304 2659 l 1312 2647 l
 1320 2636 l 1325 2625 l 1328 2614 l 1329 2603 l 1327 2592 l
 1324 2580 l 1319 2568 l 1313 2556 l 1308 2544 l 1302 2533 l
 1298 2522 l 1294 2513 l 1292 2505 l 1290 2495 l 1290 2488 l
 1292 2483 l 1294 2479 l 1294 2474 l 1292 2468 l 1288 2461 l
 1282 2454 l 1276 2445 l 1269 2438 l 1262 2432 l 1256 2430 l
 1252 2431 l 1248 2432 l 1244 2435 l 1239 2437 l 1234 2440 l
 1229 2444 l 1225 2448 l 1222 2453 l 1220 2460 l 1219 2468 l
 1220 2476 l 1221 2487 l 1225 2498 l 1229 2512 l 1234 2526 l
 1239 2541 l 1245 2556 l 1249 2570 l 1253 2584 l 1256 2595 l
 1257 2606 l cp gs col0 s gr 
% Polyline
n 1256 3154 m 1252 3164 l 1244 3170 l 1234 3174 l 1222 3176 l 1210 3178 l
 1199 3181 l 1190 3185 l 1182 3191 l 1176 3198 l 1170 3207 l
 1165 3216 l 1161 3225 l 1156 3235 l 1152 3244 l 1149 3254 l
 1146 3263 l 1144 3272 l 1143 3282 l 1142 3292 l 1141 3302 l
 1140 3312 l 1141 3322 l 1143 3330 l 1146 3338 l 1152 3345 l
 1160 3351 l 1170 3356 l 1181 3362 l 1192 3367 l 1202 3371 l
 1211 3374 l 1219 3375 l 1225 3374 l 1231 3371 l 1236 3367 l
 1241 3362 l 1245 3356 l 1250 3351 l 1253 3345 l 1256 3338 l
 1258 3330 l 1258 3322 l 1256 3313 l 1254 3304 l 1252 3294 l
 1252 3284 l 1253 3274 l 1256 3263 l 1260 3253 l 1267 3243 l
 1275 3233 l 1284 3221 l 1294 3210 l 1304 3199 l 1312 3187 l
 1320 3176 l 1325 3165 l 1328 3154 l 1329 3143 l 1327 3132 l
 1324 3120 l 1319 3108 l 1313 3096 l 1308 3084 l 1302 3073 l
 1298 3062 l 1294 3053 l 1292 3045 l 1290 3035 l 1290 3028 l
 1292 3023 l 1294 3019 l 1294 3014 l 1292 3008 l 1288 3001 l
 1282 2994 l 1276 2985 l 1269 2978 l 1262 2972 l 1256 2970 l
 1252 2971 l 1248 2972 l 1244 2975 l 1239 2977 l 1234 2980 l
 1229 2984 l 1225 2988 l 1222 2993 l 1220 3000 l 1219 3008 l
 1220 3016 l 1221 3027 l 1225 3038 l 1229 3052 l 1234 3066 l
 1239 3081 l 1245 3096 l 1249 3110 l 1253 3124 l 1256 3135 l
 1257 3146 l cp gs col0 s gr 
% Polyline
n 1339 4504 m 1343 4514 l 1351 4520 l 1361 4524 l 1373 4526 l 1385 4528 l
 1396 4531 l 1405 4535 l 1413 4541 l 1419 4548 l 1425 4557 l
 1430 4566 l 1434 4575 l 1439 4585 l 1443 4594 l 1446 4604 l
 1449 4613 l 1451 4622 l 1452 4632 l 1453 4642 l 1454 4652 l
 1455 4662 l 1454 4672 l 1452 4680 l 1449 4688 l 1443 4695 l
 1435 4701 l 1425 4706 l 1414 4712 l 1403 4717 l 1393 4721 l
 1384 4724 l 1376 4725 l 1370 4724 l 1364 4721 l 1359 4717 l
 1354 4712 l 1350 4706 l 1345 4701 l 1342 4695 l 1339 4688 l
 1337 4680 l 1337 4672 l 1339 4663 l 1341 4654 l 1343 4644 l
 1343 4634 l 1342 4624 l 1339 4613 l 1335 4603 l 1328 4593 l
 1320 4583 l 1311 4571 l 1301 4560 l 1291 4549 l 1283 4537 l
 1275 4526 l 1270 4515 l 1267 4504 l 1266 4493 l 1268 4482 l
 1271 4470 l 1276 4458 l 1282 4446 l 1287 4434 l 1293 4423 l
 1297 4412 l 1301 4403 l 1303 4395 l 1305 4385 l 1305 4378 l
 1303 4373 l 1301 4369 l 1301 4364 l 1303 4358 l 1307 4351 l
 1313 4344 l 1319 4335 l 1326 4328 l 1333 4322 l 1339 4320 l
 1343 4321 l 1347 4322 l 1351 4325 l 1356 4327 l 1361 4330 l
 1366 4334 l 1370 4338 l 1373 4343 l 1375 4350 l 1376 4358 l
 1375 4366 l 1374 4377 l 1370 4388 l 1366 4402 l 1361 4416 l
 1356 4431 l 1350 4446 l 1346 4460 l 1342 4474 l 1339 4485 l
 1338 4496 l cp gs col0 s gr 
% Polyline
n 1181 4504 m 1177 4514 l 1169 4520 l 1159 4524 l 1147 4526 l 1135 4528 l
 1124 4531 l 1115 4535 l 1107 4541 l 1101 4548 l 1095 4557 l
 1090 4566 l 1086 4575 l 1081 4585 l 1077 4594 l 1074 4604 l
 1071 4613 l 1069 4622 l 1068 4632 l 1067 4642 l 1066 4652 l
 1065 4662 l 1066 4672 l 1068 4680 l 1071 4688 l 1077 4695 l
 1085 4701 l 1095 4706 l 1106 4712 l 1117 4717 l 1127 4721 l
 1136 4724 l 1144 4725 l 1150 4724 l 1156 4721 l 1161 4717 l
 1166 4712 l 1170 4706 l 1175 4701 l 1178 4695 l 1181 4688 l
 1183 4680 l 1183 4672 l 1181 4663 l 1179 4654 l 1177 4644 l
 1177 4634 l 1178 4624 l 1181 4613 l 1185 4603 l 1192 4593 l
 1200 4583 l 1209 4571 l 1219 4560 l 1229 4549 l 1237 4537 l
 1245 4526 l 1250 4515 l 1253 4504 l 1254 4493 l 1252 4482 l
 1249 4470 l 1244 4458 l 1238 4446 l 1233 4434 l 1227 4423 l
 1223 4412 l 1219 4403 l 1217 4395 l 1215 4385 l 1215 4378 l
 1217 4373 l 1219 4369 l 1219 4364 l 1217 4358 l 1213 4351 l
 1207 4344 l 1201 4335 l 1194 4328 l 1187 4322 l 1181 4320 l
 1177 4321 l 1173 4322 l 1169 4325 l 1164 4327 l 1159 4330 l
 1154 4334 l 1150 4338 l 1147 4343 l 1145 4350 l 1144 4358 l
 1145 4366 l 1146 4377 l 1150 4388 l 1154 4402 l 1159 4416 l
 1164 4431 l 1170 4446 l 1174 4460 l 1178 4474 l 1181 4485 l
 1182 4496 l cp gs col0 s gr 
% Polyline
n 1890 2520 m 2160 2520 l 2160 2790 l 1890 2790 l cp gs col0 s gr 
/Times-Roman ff 180.00 scf sf
1980 2722 m
gs 1 -1 sc (1) col0 sh gr
% Polyline
gs  clippath
1542 2685 m 1422 2655 l 1542 2625 l 1380 2625 l 1380 2685 l cp
clip
n 1890 2655 m 1395 2655 l gs col0 s gr gr

% arrowhead
n 1542 2685 m 1422 2655 l 1542 2625 l 1542 2655 l 1542 2685 l  cp gs 0.00 setgray ef gr  col0 s
% Polyline
n 1890 3060 m 2160 3060 l 2160 3330 l 1890 3330 l cp gs col0 s gr 
/Times-Roman ff 180.00 scf sf
1980 3262 m
gs 1 -1 sc (2) col0 sh gr
% Polyline
gs  clippath
1542 3225 m 1422 3195 l 1542 3165 l 1380 3165 l 1380 3225 l cp
clip
n 1890 3195 m 1395 3195 l gs col0 s gr gr

% arrowhead
n 1542 3225 m 1422 3195 l 1542 3165 l 1542 3195 l 1542 3225 l  cp gs 0.00 setgray ef gr  col0 s
% Polyline
n 2520 4410 m 2250 4410 l 2250 4680 l 2520 4680 l cp gs col0 s gr 
/Times-Roman ff 180.00 scf sf
2340 4612 m
gs 1 -1 sc (4) col0 sh gr
% Ellipse
n 1215 2250 64 64 0 360 DrawEllipse gs col0 s gr

% Ellipse
n 1215 2025 64 64 0 360 DrawEllipse gs col0 s gr

% Ellipse
n 1215 3735 64 64 0 360 DrawEllipse gs col0 s gr

% Ellipse
n 1215 4050 64 64 0 360 DrawEllipse gs col0 s gr

% Polyline
n 900 450 m 990 1575 l 900 5625 l 1575 5625 l 1485 1800 l 1575 450 l
 900 450 l cp gs col0 s gr 
% Polyline
30.000 slw
n 990 1575 m 1485 1575 l gs col0 s gr 
% Polyline
n 990 1665 m 1485 1665 l gs col0 s gr 
% Polyline
7.500 slw
gs  clippath
1542 4575 m 1422 4545 l 1542 4515 l 1380 4515 l 1380 4575 l cp
clip
n 1890 4545 m 1395 4545 l gs col0 s gr gr

% arrowhead
n 1542 4575 m 1422 4545 l 1542 4515 l 1542 4545 l 1542 4575 l  cp gs 0.00 setgray ef gr  col0 s
% Polyline
n 1890 4410 m 2160 4410 l 2160 4680 l 1890 4680 l cp gs col0 s gr 
/Times-Roman ff 180.00 scf sf
1980 4612 m
gs 1 -1 sc (3) col0 sh gr
$F2psEnd
rs
