%!PS-Adobe-2.0 EPSF-2.0
%%Title: whistle-tremolo.eps
%%Creator: fig2dev Version 3.2 Patchlevel 0-beta3
%%CreationDate: Sun May 24 21:57:20 1998
%%For: nicb@ax-nicb.axnet.it (Nicola Bernardini)
%%Orientation: Portrait
%%BoundingBox: 0 0 75 80
%%Pages: 0
%%BeginSetup
%%EndSetup
%%Magnification: 1.0000
%%EndComments
/$F2psDict 200 dict def
$F2psDict begin
$F2psDict /mtrx matrix put
/col-1 {0 setgray} bind def
/col0 {0.000 0.000 0.000 srgb} bind def
/col1 {0.000 0.000 1.000 srgb} bind def
/col2 {0.000 1.000 0.000 srgb} bind def
/col3 {0.000 1.000 1.000 srgb} bind def
/col4 {1.000 0.000 0.000 srgb} bind def
/col5 {1.000 0.000 1.000 srgb} bind def
/col6 {1.000 1.000 0.000 srgb} bind def
/col7 {1.000 1.000 1.000 srgb} bind def
/col8 {0.000 0.000 0.560 srgb} bind def
/col9 {0.000 0.000 0.690 srgb} bind def
/col10 {0.000 0.000 0.820 srgb} bind def
/col11 {0.530 0.810 1.000 srgb} bind def
/col12 {0.000 0.560 0.000 srgb} bind def
/col13 {0.000 0.690 0.000 srgb} bind def
/col14 {0.000 0.820 0.000 srgb} bind def
/col15 {0.000 0.560 0.560 srgb} bind def
/col16 {0.000 0.690 0.690 srgb} bind def
/col17 {0.000 0.820 0.820 srgb} bind def
/col18 {0.560 0.000 0.000 srgb} bind def
/col19 {0.690 0.000 0.000 srgb} bind def
/col20 {0.820 0.000 0.000 srgb} bind def
/col21 {0.560 0.000 0.560 srgb} bind def
/col22 {0.690 0.000 0.690 srgb} bind def
/col23 {0.820 0.000 0.820 srgb} bind def
/col24 {0.500 0.190 0.000 srgb} bind def
/col25 {0.630 0.250 0.000 srgb} bind def
/col26 {0.750 0.380 0.000 srgb} bind def
/col27 {1.000 0.500 0.500 srgb} bind def
/col28 {1.000 0.630 0.630 srgb} bind def
/col29 {1.000 0.750 0.750 srgb} bind def
/col30 {1.000 0.880 0.880 srgb} bind def
/col31 {1.000 0.840 0.000 srgb} bind def

end
save
-12.0 95.0 translate
1 -1 scale

/cp {closepath} bind def
/ef {eofill} bind def
/gr {grestore} bind def
/gs {gsave} bind def
/sa {save} bind def
/rs {restore} bind def
/l {lineto} bind def
/m {moveto} bind def
/rm {rmoveto} bind def
/n {newpath} bind def
/s {stroke} bind def
/sh {show} bind def
/slc {setlinecap} bind def
/slj {setlinejoin} bind def
/slw {setlinewidth} bind def
/srgb {setrgbcolor} bind def
/rot {rotate} bind def
/sc {scale} bind def
/sd {setdash} bind def
/ff {findfont} bind def
/sf {setfont} bind def
/scf {scalefont} bind def
/sw {stringwidth} bind def
/tr {translate} bind def
/tnt {dup dup currentrgbcolor
  4 -2 roll dup 1 exch sub 3 -1 roll mul add
  4 -2 roll dup 1 exch sub 3 -1 roll mul add
  4 -2 roll dup 1 exch sub 3 -1 roll mul add srgb}
  bind def
/shd {dup dup currentrgbcolor 4 -2 roll mul 4 -2 roll mul
  4 -2 roll mul srgb} bind def
/$F2psBegin {$F2psDict begin /$F2psEnteredState save def} def
/$F2psEnd {$F2psEnteredState restore end} def
%%EndProlog

$F2psBegin
10 setmiterlimit
n -1000 2497 m -1000 -1000 l 2372 -1000 l 2372 2497 l cp clip
 0.06299 0.06299 sc
% Polyline
7.500 slw
n 431 486 m 432 486 l 435 483 l 443 477 l 454 469 l 465 460 l
 474 452 l 481 443 l 485 435 l 487 425 l 488 414 l
 487 400 l 486 385 l 485 371 l 483 358 l 481 350 l
 478 345 l 474 345 l 468 349 l 460 357 l 452 367 l
 444 377 l 437 386 l 431 393 l 427 399 l 425 402 l
 424 405 l 424 409 l 424 413 l 425 417 l 425 421 l
 426 424 l 427 427 l 428 429 l 429 430 l 429 428 l
 430 425 l 431 418 l 433 408 l 434 394 l 437 379 l
 439 362 l 441 344 l 443 328 l 445 314 l 446 302 l
 446 293 l 446 284 l 444 278 l 442 274 l 440 271 l
 438 269 l 435 267 l 433 265 l 430 264 l 426 264 l
 421 266 l 415 269 l 409 273 l 404 278 l 401 285 l
 400 293 l 400 304 l 401 317 l 402 332 l 403 347 l
 404 359 l 405 367 l 405 370 l 405 367 l 405 359 l
 405 347 l 404 332 l 404 317 l 403 304 l 403 293 l
 401 285 l 398 278 l 394 274 l 389 272 l 384 270 l
 379 269 l 376 268 l 375 268 l 374 268 l 373 269 l
 372 269 l 372 270 l 371 270 l 371 271 l 371 272 l
 370 274 l 369 276 l 369 278 l 368 282 l 367 289 l
 365 300 l 364 313 l 362 327 l 360 342 l 359 353 l
 357 361 l 357 364 l 357 362 l 358 354 l 359 343 l
 361 329 l 363 315 l 364 302 l 365 292 l 365 285 l
 364 280 l 363 276 l 362 274 l 360 272 l 358 271 l
 356 270 l 354 269 l 352 268 l 350 268 l 347 269 l
 345 270 l 342 270 l 339 272 l 337 274 l 335 277 l
 333 282 l 332 289 l 331 299 l 331 311 l 331 324 l
 331 338 l 331 349 l 330 357 l 330 362 l 329 362 l
 329 356 l 328 347 l 327 337 l 326 329 l 325 323 l
 323 318 l 319 314 l 316 311 l 313 309 l 310 308 l
 308 309 l 306 311 l 304 314 l 302 317 l 301 322 l
 300 329 l 300 337 l 300 346 l 301 357 l 301 370 l
 302 382 l 303 394 l 304 404 l 305 413 l 307 424 l
 310 435 l 315 447 l 318 457 l 321 463 l 321 464 l gs col0 s gr 
% Polyline
15.000 slw
n 225 945 m 1350 945 l gs col0 s gr 
% Polyline
1 slj
1 slc
30.000 slw
n 585 945 m 675 855 l gs col0 s gr 
% Polyline
0 slj
n 495 855 m 585 765 l gs col0 s gr 
% Polyline
15.000 slw
n 594 756 m 684 846 l gs col0 s gr 
% Polyline
n 577 951 m 487 861 l gs col0 s gr 
% Polyline
0 slc
7.500 slw
n 495 855 m 495 1485 l gs col0 s gr 
% Polyline
gs  clippath
625 676 m 675 556 l 725 676 l 725 525 l 625 525 l cp
clip
n 675 855 m 675 540 l gs col0 s gr gr

% arrowhead
n 625 676 m 675 556 l 725 676 l  col0 s
% Polyline
n 720 405 m 721 404 l 727 396 l 737 384 l 748 371 l 757 363 l
 765 360 l 773 363 l 780 371 l 788 383 l 795 394 l
 803 402 l 810 405 l 818 402 l 825 394 l 833 382 l
 840 371 l 848 363 l 855 360 l 863 363 l 870 371 l
 878 383 l 885 394 l 893 402 l 900 405 l 908 402 l
 915 394 l 923 382 l 930 371 l 938 363 l 945 360 l
 953 363 l 960 371 l 968 383 l 975 394 l 983 402 l
 990 405 l 998 402 l 1005 394 l 1013 382 l 1020 371 l
 1028 363 l 1035 360 l 1043 363 l 1050 371 l 1058 383 l
 1065 394 l 1073 402 l 1080 405 l 1088 402 l 1095 394 l
 1103 382 l 1110 371 l 1118 363 l 1125 360 l 1133 363 l
 1140 371 l 1148 383 l 1155 394 l 1163 402 l 1170 405 l
 1178 402 l 1185 394 l 1193 382 l 1200 371 l 1208 363 l
 1215 360 l 1223 363 l 1230 371 l 1238 383 l 1245 394 l
 1253 402 l 1260 405 l 1268 402 l 1275 394 l 1283 382 l
 1290 371 l 1298 363 l 1305 360 l 1313 363 l 1322 371 l
 1334 384 l 1343 396 l 1349 404 l 1350 405 l gs col0 s gr 
/Bookman-DemiItalic ff 180.00 scf sf
573 432 m
gs 1 -1 sc (tr) col0 sh gr
$F2psEnd
rs
