#
# Data prepared automagically by datamk.awk,v 0.1
#
# starting bar: 37, ending bar: 45, bar number start: 129
# instrument list (not in the correct order):
# roto|sonagli|incu|crash|tamb|tblocks|wblocks|snare|gcassa
# rebar by rebar.awk,v 0.5
# allowed values(17): 1:2:4:6:8:10:12:16:20:24:26:28:32:40:48:56:64
# allowed values(17): 1:2:4:6:8:10:12:16:20:24:26:28:32:40:48:56:64
# rfit.awk,v 0.19 1997/06/01 09:35:16 nicb Exp
# allowed divisors: "1:2:4:6:8:10:12:16:20:24:26:28:32:40:48:56:64"
# C(3/4): mm/quarter = 96.00
#
# system 1
#
129|roto,sonagli,incu,crash,tamb,wblocks|0.3
130|incu,snare,crash|0.3
131|roto,sonagli,incu,crash,tamb,wblocks,snare,gcassa|0.4
#
# system 2
#
132|snare,roto,sonagli,wblocks|0.3
133|wblocks,roto,sonagli,crash,tblocks,incu|0.25
134|roto,sonagli,snare|0.225
135|roto,tblocks,wblocks,snare|0.225
#
# End of data prepared by datamk.awk,v
