#
# Data prepared automagically by datamk.awk,v 0.1
#
# starting bar: 24, ending bar: 31, bar number start: 176
# instrument list (not in the correct order):
# sorff|crash|tamb|tblocks|incu|sizzle|snare|gcassa|roto|sonagli
# rebar by rebar.awk,v 0.4
# allowed values(17): 1:2:4:6:8:10:12:16:20:24:26:28:32:40:48:56:64
# allowed values(17): 1:2:4:6:8:10:12:16:20:24:26:28:32:40:48:56:64
# rfit.awk,v 0.19 1997/06/01 09:35:16 nicb Exp
# allowed divisors: "1:2:4:6:8:10:12:16:20:24:26:28:32:40:48:56:64"
# D0(6/8): mm/quarter = 156.00
#
# system 1
#
176|sorff,crash,tamb,gcassa,roto,snare,sizzle|0.25
177|crash,sizzle,gcassa|0.25
178|roto,snare,sorff,crash|0.25
179|snare,sonagli,sizzle,sorff|0.25
#
# system 2
#
180|sorff,tblocks,roto,snare,gcassa|0.3
181|crash,sorff,sizzle,snare,gcassa|0.2
182|snare,sorff,tamb,sizzle,gcassa|0.2
183|crash,gcassa,tamb,sizzle,sonagli,sorff,snare|0.3
#
# End of data prepared by datamk.awk,v
