#
# Data prepared automagically by datamk.awk,v 0.1
#
# starting bar: 13, ending bar: 22, bar number start: 225
# instrument list (not in the correct order):
# sorff|crash|tamb|tblocks|incu|sizzle|snare|gcassa|roto|sonagli
# rebar by rebar.awk,v 0.4
# allowed values(17): 1:2:4:6:8:10:12:16:20:24:26:28:32:40:48:56:64
# allowed values(17): 1:2:4:6:8:10:12:16:20:24:26:28:32:40:48:56:64
# rfit.awk,v 0.19 1997/06/01 09:35:16 nicb Exp
# allowed divisors: "1:2:4:6:8:10:12:16:20:24:26:28:32:40:48:56:64"
# D1(6/8): mm/quarter = 156.00
#
# system 1
#
225|roto,crash,gcassa,sonagli,sizzle|0.2
226|sorff,gcassa,sizzle,tblocks|0.2
227|crash,sorff,gcassa,tblocks,sonagli,roto|0.2
228|crash,sorff,tamb,sizzle|0.2
229|gcassa,crash,roto,sorff,sizzle,tamb|0.2
#
# system 2
#
230|tamb,crash,roto,sorff,snare,sizzle|0.2
231|sorff,snare,crash,tamb,sizzle,incu|0.2
232|crash,tamb,gcassa,sizzle,sorff|0.2
233|crash|0.2
234|crash,tblocks,tamb,sizzle,sorff|0.2
#
# End of data prepared by datamk.awk,v
