0.1875 5 1001 acctnote
0.294118 8 1001 acctnote
0.294118 9 1 acctnote
0.3125 7 1001 acctnote
0.625 1 1001 acctnote
0.625 2 1001 acctnote
0.625 3 1 note
0.625 4 1001 acctnote
1.04167 4 1 note
1.125 5 1 note
1.25 4 1001 acctnote
1.25 7 1 note
1.40625 6 1 note
1.875 1 1001 acctnote
1.875 2 1001 acctnote
1.875 3 1 note
1.875 4 1 note
1.875 6 1 note
2.08333 3 1 note
2.08333 4 1 note
2.25 5 1 note
2.29167 4 1 note
2.5 3 1 note
2.5 4 1 acctnote
2.91667 3 1 note
2.91667 4 1 note
3.75 1 1 note
3.75 2 1 note
5.3125 1 1 note
5.3125 2 1 note
6.25 2 1 note
6.5625 7 1000 acctnote
7.70833 3 1000 acctnote
9.0625 1 1 note
9.375 1 1001 acctnote
9.375 2 1000 acctnote
11.25 1 1 note
12.8125 1 1 note
15 1 1 note
16.25 4 1000 acctnote
18.125 1 1 note
19.3125 5 1000 acctnote
20 4 1000 acctnote
20.3125 1 1 note
20.625 1 1001 acctnote
20.625 2 1000 acctnote
20.625 4 1000 acctnote
21.4583 3 1000 acctnote
22.5 1 1 note
22.5 2 1100 acctnote
24.0625 1 1 note
24.375 1 1001 acctnote
24.375 3 100 note
25.2083 3 100 acctnote
26.25 1 1 note
26.25 4 100 acctnote
26.6667 4 100 note
27.5 4 100 acctnote
27.9167 4 100 note
28.5417 4 100 note
28.75 4 100 acctnote
29.4375 5 100 acctnote
29.5833 4 100 note
29.8125 5 100 note
30.1875 5 100 note
30.5625 5 100 acctnote
31.125 5 100 acctnote
32.0625 5 100 note
32.3438 6 100 note
32.7083 3 1000 acctnote
32.8125 5 100 acctnote
32.8125 6 100 note
33.125 1 1 note
34.0625 7 100 note
34.5312 7 100 note
35.1562 6 100 note
35.1562 7 100 note
35.3125 1 1 note
35.3125 7 100 acctnote
35.625 1 1001 acctnote
35.625 6 100 note
36.5625 6 100 note
36.5625 7 100 acctnote
36.7647 8 100 note
36.875 1 1 note
37.2059 8 100 note
37.5 1 1 note
37.5 2 1 acctnote
37.5 6 100 acctnote
37.5 7 100 note
37.7344 6 100 note
37.7941 8 100 note
37.9688 6 100 note
38.125 1 1001 acctnote
38.125 2 1 note
38.125 4 1000 acctnote
38.2031 6 100 note
38.4375 6 100 note
38.6719 6 100 note
38.9062 6 100 note
39.0625 1 1 note
39.0625 2 1 note
39.0625 7 100 note
39.1406 6 100 note
39.375 6 100 acctnote
39.5833 3 1 note
39.5833 4 1 note
39.6875 7 100 note
40 2 1 note
40 3 1 note
40 4 1 acctnote
40 8 100 note
40.1471 8 100 note
40.1562 7 100 note
40.2941 8 100 acctnote
40.4167 3 1 note
40.4167 4 1 note
40.5 5 1 note
40.625 1 1 note
40.625 2 1 note
40.625 3 1 note
40.625 4 1 acctnote
40.8333 3 1 note
40.8333 4 1 note
41.1765 8 100 note
41.25 1 1 note
41.25 2 1 acctnote
41.25 3 1 note
41.25 4 1 acctnote
41.25 5 1 acctnote
41.25 6 1 note
41.25 7 100 note
41.4706 8 100 note
41.5625 7 100 acctnote
41.625 5 1 note
41.6667 4 1 note
41.8125 5 1 acctnote
41.875 1 1001 acctnote
41.875 2 1 note
41.875 3 1 note
41.875 4 1 note
42.1875 6 1 acctnote
42.2917 4 1 note
42.5 3 1 note
42.5 4 1 acctnote
42.5 7 101 note
42.5 8 101 note
42.75 5 1 note
42.8125 1 1 note
42.8125 2 1 note
42.8125 7 101 acctnote
42.9167 4 1 note
42.9375 5 1 acctnote
43.125 1 1001 acctnote
43.125 2 1 acctnote
43.125 3 1 note
43.125 4 1 acctnote
43.125 5 1 note
44.0625 5 1001 acctnote
44.0625 6 1 note
44.0625 7 101 note
44.6875 7 100 note
45 1 1 note
45 2 1 note
45 4 1001 acctnote
45 6 1000 acctnote
45 8 100 note
45.625 1 1001 acctnote
45.625 2 1001 acctnote
45.625 3 1 note
45.625 4 1001 acctnote
46.25 3 1 note
46.25 4 1 acctnote
46.25 7 100 note
46.5625 1 1 note
46.5625 2 1 note
46.5625 7 100 acctnote
47.8125 7 100 acctnote
50.3125 1 1 note
50.3125 7 100 acctnote
51.25 7 100 note
52.5 1 1 note
52.5 7 100 note
53.125 1 1001 acctnote
54.0625 1 1 note
54.0625 7 100 note
56.25 1 1 note
56.25 7 100 note
56.875 1 1001 acctnote
57.8125 1 1 note
57.8125 7 100 acctnote
59.0625 7 100 note
59.375 1 1 note
59.6875 7 100 note
60 1 1 note
60 8 100 note
61.25 7 100 note
61.875 1 1001 acctnote
62.5 7 100 note
62.5 8 100 note
64.0625 7 100 note
64.6875 7 100 note
65 8 100 note
65 9 100 note
65.3125 1 1 note
65.3125 2 1 note
65.3125 7 100 acctnote
66.5625 7 100 acctnote
67.5 1 1 note
67.5 2 1 acctnote
67.5 3 1 note
67.5 4 1 acctnote
67.5 5 1 note
67.5 7 100 note
67.8125 7 100 acctnote
68.125 1 1001 acctnote
68.125 2 1 note
68.125 3 1 note
68.125 4 1 acctnote
70.2083 3 1001 acctnote
70.2941 8 101 note
70.4167 3 1 note
70.4167 4 1 note
70.7353 8 100 note
70.8333 4 1 note
71.25 1 1 note
71.25 2 1001 acctnote
71.25 3 1 note
71.25 4 1 acctnote
71.25 5 1 note
71.25 7 100 note
71.4583 4 1 note
71.5625 7 100 acctnote
71.6667 4 1 note
72.0588 8 100 note
72.0588 9 100 note
72.6471 8 100 note
72.6471 9 100 acctnote
73.0882 8 100 note
73.125 1 1001 acctnote
73.125 2 1 acctnote
73.6765 8 100 note
73.75 7 100 note
74.0625 7 100 note
74.2647 8 100 note
74.375 1 1 note
74.5312 7 100 note
74.6875 7 100 note
75.1562 7 100 note
75.625 1 1001 acctnote
75.625 2 1000 acctnote
75.625 4 1000 acctnote
75.9375 6 1000 acctnote
76.4583 3 1000 acctnote
76.875 1 1001 acctnote
76.875 2 1000 acctnote
77.6471 8 100 note
77.7941 8 100 note
78.125 1 1 note
78.75 1 1 note
78.75 6 100 note
78.75 7 100 note
78.9706 8 100 note
79.1176 8 100 note
79.375 1 1001 acctnote
79.7059 8 100 note
79.9219 6 100 note
80.2941 8 100 acctnote
80.3125 1 1 note
80.3125 7 100 acctnote
81.25 7 100 note
81.3281 6 100 note
81.5625 6 100 acctnote
81.875 1 1 note
82.5 1 1 note
82.5 2 1000 acctnote
82.5 4 1000 acctnote
82.5 7 100 note
82.8125 7 100 acctnote
82.9688 6 100 note
83.4375 6 100 note
84.375 6 100 acctnote
84.5625 5 100 acctnote
84.5833 4 1 note
84.7917 4 1 note
85.5 5 101 note
85.625 1 1 note
85.625 2 1 note
85.625 3 1 note
85.625 4 1 acctnote
85.6875 5 101 acctnote
85.8333 3 1 note
85.8333 4 1 note
85.8824 8 1 note
86.0417 4 1 note
86.875 1 1001 acctnote
86.875 2 1 note
86.875 3 1 note
86.875 4 1 note
87.1875 6 101 acctnote
87.8125 1 1 note
87.8125 2 1 note
88.75 3 1 note
88.75 4 101 acctnote
90.625 1 1001 acctnote
90.625 2 1 acctnote
90.625 4 100 acctnote
91.875 1 1001 acctnote
91.875 2 1001 acctnote
91.875 4 100 note
93.75 1 1 note
93.75 3 100 note
94.6875 5 1000 acctnote
95.3125 1 1 note
95.3125 2 100 note
95.3125 7 1000 acctnote
95.625 1 1001 acctnote
95.625 2 1100 acctnote
95.625 4 1000 acctnote
95.625 6 1000 acctnote
96.25 2 100 note
96.25 4 1000 acctnote
96.4583 3 1000 acctnote
96.875 1 1 note
97.7083 3 1000 acctnote
100.625 1 1 note
101.875 1 1001 acctnote
105 1 1 note
105.625 1 1001 acctnote
108.75 1 1 note
108.75 2 1 note
109.062 2 1 note
110.625 1 1001 acctnote
110.625 2 1 acctnote
110.625 3 1 note
110.625 4 1 acctnote
110.625 5 1 note
112.5 6 1 acctnote
