0 1 1 note
0 2 1 note
0 3 1 note
0 5 1 note
0.09804 8 1 note
0.294118 1 1001 acctnote
0.294118 2 1 note
0.294118 3.1 1001 acctnote
0.294118 4 1001 acctnote
0.294118 5 1001 acctnote
0.588235 3 1 note
0.882353 2.9 1 note
1.17647 1 1 note
1.17647 2 1 note
1.47059 1 1001 acctnote
2.35294 1 1 note
2.64706 1 1001 acctnote
2.64706 3.1 1000 acctnote
2.64706 8 1000 acctnote
2.94118 4 1000 acctnote
3.52941 1 1 note
3.82353 1 1 note
4.26471 1 1 note
4.41176 1 1 note
4.85294 1 1 note
5 1 1 acctnote
5.88235 1 1 note
6.17647 1 1 acctnote
7.05882 1 101 note
7.35294 1 1 acctnote
8.52941 1 1 note
8.97059 1 1 note
9.11765 1 1 note
9.41176 3.1 100 note
9.55882 1 1 note
9.70588 1 1 acctnote
10 4 100 acctnote
10.5882 1 1 note
10.8824 1 1001 acctnote
10.8824 5 100 acctnote
11.7647 1 1 note
12.0588 1 1001 acctnote
12.0588 6 100 note
12.3529 6 100 acctnote
12.6471 4 1000 acctnote
12.6471 5 1000 acctnote
12.9412 1 1 note
13.2353 1 1 note
13.2353 3.1 1000 acctnote
13.6765 1 1 note
13.8235 1 1 note
14.2157 8 100 note
14.2647 1 1 note
14.4118 1 1001 acctnote
14.4118 8 100 acctnote
14.6078 8 100 note
14.8039 8 100 note
15 8 100 note
15.2941 1 1 note
15.2941 2 1 note
15.3922 8 100 note
15.4412 2 1 note
15.5882 1 1 acctnote
15.5882 2 1 note
15.5882 3.1 1 acctnote
15.5882 8 100 acctnote
15.7353 4 1 note
15.8824 2.9 1 note
15.8824 5 1 note
15.9559 4 1 note
15.9804 8 100 note
16.0294 2 1 note
16.1765 2 1 note
16.1765 4 1 acctnote
16.1765 5 1 acctnote
16.1765 8 100 note
16.1765 9 100 acctnote
16.4706 1 1 note
16.4706 3.1 1 note
16.4706 5 1 note
16.6176 2 1 note
16.7647 1 1 acctnote
16.7647 2 1 note
16.7647 3.1 1 acctnote
16.8382 4 1 note
17.2059 2 1 note
17.5 9 100 note
17.6471 1 1 note
17.9412 1 1 note
17.9412 9 100 note
18.3824 1 1 note
18.5294 1 1 note
18.8235 9 100 acctnote
18.9706 1 1 note
19.1176 1 1 acctnote
20 1 1 note
20.1471 9 100 note
20.2941 1 1001 acctnote
20.2941 3.1 1000 acctnote
20.2941 8 1000 acctnote
20.5882 4 1000 acctnote
20.5882 9 100 note
21.1765 1 1 note
21.4706 1 1000 acctnote
21.4706 9 100 note
22.3529 1 1 note
22.3529 9 100 acctnote
22.5735 9 100 note
22.6471 1 1 note
22.7941 9 100 note
22.9412 6 1000 acctnote
22.9412 7 1000 acctnote
23.0147 9 100 note
23.0882 1 1 note
23.2353 1 1 note
23.2353 4 1000 acctnote
23.2353 5 1000 acctnote
23.2353 9 100 note
23.4559 9 100 note
23.6765 1 1 note
23.6765 9 100 note
23.8235 1 1001 acctnote
23.8971 9 100 note
24.1176 9 100 acctnote
24.7059 1 1 note
25 1 1001 acctnote
25.4412 9 100 note
25.8824 1 1 note
25.8824 9 100 note
26.0294 2 1 note
26.1765 1 1 acctnote
26.1765 2 1 note
26.1765 3.1 1 acctnote
26.3235 4 1 note
26.4706 3 1 note
26.4706 5 1 note
26.4706 6 1 acctnote
26.4706 7 1 acctnote
26.5441 4 1 note
26.5686 8 1 note
26.6176 2 1 note
26.7647 2 1 note
26.7647 2.9 1 note
26.7647 4 1 acctnote
26.7647 5 1 acctnote
26.7647 9 100 acctnote
27.0588 1 1 note
27.3529 1 1 note
27.7941 1 1 note
27.9412 1 1 note
28.0882 9 100 note
28.3824 1 1 note
28.5294 1 1 acctnote
28.5294 9 100 note
28.9216 8 100 note
29.1176 8 100 note
29.4118 1 1 note
29.5098 8 100 note
29.7059 8 100 acctnote
30.098 8 100 note
30.2941 8 100 note
30.5882 1 1 note
30.6863 8 100 note
30.8824 1 1001 acctnote
30.8824 3.1 1000 acctnote
31.1765 7 100 note
31.7647 1 1 note
31.7647 7 100 note
32.0588 1 1 note
32.0588 7 100 note
32.5 1 1 note
32.5 2 1 note
32.6471 1 1 note
32.6471 2 1 note
32.7206 4 1 note
32.9412 3.1 1 note
32.9412 4 1 note
32.9412 5 1 note
33.0882 1 1 note
33.0882 2 1 note
33.1618 4 1 note
33.2353 1 1001 acctnote
33.2353 2 1 note
33.2353 3.1 1001 acctnote
33.5294 5 100 note
33.8235 5 100 acctnote
34.1176 1 1 note
34.1176 5 100 note
34.4118 1 1001 acctnote
34.7059 4 100 acctnote
34.9265 4 100 note
35.2941 1 1 note
35.2941 3.1 100 note
35.5882 1 1 acctnote
35.5882 3.1 100 acctnote
36.4706 1 1 note
36.6176 2 100 note
36.7647 1 1 note
36.7647 2 100 note
36.7647 3.1 1000 acctnote
36.7647 8 1000 acctnote
37.2059 1 1 note
37.3529 1 1 note
37.7941 1 100 note
37.9412 1 2000 acctnote
37.9412 3.1 1000 acctnote
37.9412 8 1000 acctnote
38.2353 4 1000 acctnote
38.8235 1 1 note
39.1176 1 1001 acctnote
40 1 1 note
40.2941 1 1001 acctnote
41.1765 1 1 note
41.4706 1 1 note
41.7647 4 1000 acctnote
41.9118 1 1 note
42.0588 1 1 note
42.5 1 1 note
42.5 2 1 note
42.6471 2 1 note
42.6471 3.1 1 acctnote
42.6471 4 1 acctnote
42.9412 3 1 note
42.9412 6 1 acctnote
42.9412 7 1 acctnote
