#
# polinomio di lagrange
#
#  y = C (x-x1)(x-x2)...(x-xn)+C (x-x0)(x-x2)...(x-xn)+...
#       0                       1
#
# y  = C (xi-x0)(xi-x1)...(xi-(xi-1))(xi-(xi+1))...(xi-xn)
#  i    i
#
#                             yi
# C  = ------------------------------------------------
#  i   (xi-x0)(xi-x1)...(xi-(xi-1))(xi-(xi+1))...(xi-xn)
#
#
# ad esempio: per cinque punti:
#
#                   y0
# C  = ----------------------------
#  0   (x0-x1)(x0-x2)(x0-x3)(x0-x4)
#
#                   y1
# C  = ----------------------------
#  1   (x1-x0)(x1-x2)(x1-x3)(x1-x4)
#
#                   y2
# C  = ----------------------------
#  2   (x2-x0)(x2-x1)(x2-x3)(x2-x4)
#
#                   y3
# C  = ----------------------------
#  3   (x3-x0)(x3-x1)(x3-x2)(x3-x4)
#
#                   y4
# C  = ----------------------------
#  4   (x4-x0)(x4-x1)(x4-x2)(x4-x3)
#
y0=0
y1=0
y2=5
y3=10
y4=10
x0=0
x1=12
x2=16.4
x3=20
x4=25
C0=y0/((x0-x1)*(x0-x2)*(x0-x3)*(x0-x4))
C1=y1/((x1-x0)*(x1-x2)*(x1-x3)*(x1-x4))
C2=y2/((x2-x0)*(x2-x1)*(x2-x3)*(x2-x4))
C3=y3/((x3-x0)*(x3-x1)*(x3-x2)*(x3-x4))
C4=y4/((x4-x0)*(x4-x1)*(x4-x2)*(x4-x3))
plot [-1:28][-1:11] (C0*(x-x1)*(x-x2))+(C1*(x-x0)*(x-x2))+(C2*(x-x0)*(x-x1))+\
	(C3*(x-x0)*(x-x1)*(x-x2)*(x-x4))+(C4*(x-x0)*(x-x1)*(x-x2)*(x-x3))
pause -1
