01:f2
02:f#2
03:g2
04:a&2
05:a2:+7\b/
06:b&2
07:b2
08:b2:+7
09:b2:+7\b/
10:b2::+8
11:c3:+67
12:c#3
13:c#3:+7
14:c#3:-6
15:c#3:-1
16:d3:+4
17:d3:+46
18:e&3
19:e&3:+5
20:e&3:+57\b/
21:e&3:+67
22:e&3:::1,3,5,6
23:e&3:+6
24:e&3:+5:+8
25:e3:II
26:e3:II+56
27:e3:II+567
28:e3:+457
29:e3:+467
30:f3:+456
31:f3:+457
32:f#3:+457
