#FIG 3.2
Landscape
Center
Metric
A4      
100.00
Single
-2
1200 2
6 225 180 540 810
3 2 0 1 0 7 0 0 -1 0.000 0 1 0 13
	0 0 1.00 100.00 80.00
	 226 764 326 764 449 764 423 709 474 658 423 594
	 474 535 423 479 474 428 423 369 474 318 449 279
	 449 210
	 0.000 -1.000 -1.000 -1.000 -1.000 -1.000 -1.000 -1.000
	 -1.000 -1.000 -1.000 -1.000 0.000
-6
