#FIG 3.2
Landscape
Center
Metric
A4      
100.00
Single
-2
1200 2
2 5 0 1 0 -1 4 0 -1 0.000 0 0 -1 0 0 5
	0 tremolo-multi-2.gif
	 315 405 2786 405 2786 1518 315 1518 315 405
2 4 0 1 0 7 3 0 20 0.000 0 0 2 0 0 5
	 1158 1114 1026 1114 1026 1004 1158 1004 1158 1114
2 1 0 1 0 7 0 0 20 0.000 0 0 -1 0 0 2
	 983 1050 1187 1050
2 4 0 1 0 7 0 0 20 0.000 0 0 2 0 0 5
	 1962 893 1838 893 1838 791 1962 791 1962 893
