0 1 1001 note
0 5 2005 acctnote
0 7 2007 acctnote
0.491803 3 100 acctnote
1.47541 3 100 acctnote
3.44262 3 100 acctnote
4.42623 3 100 acctnote
5.375 1 11 note
5.375 5 1015 acctnote
5.90164 3 100 acctnote
7.16667 1 1001 note
7.16667 8 1008 note
7.37705 3 100 acctnote
8.85246 3 100 acctnote
8.95833 8 18 note
8.95833 9 19 note
10.3279 3 100 acctnote
10.75 4 2004 acctnote
10.75 8 1008 note
12.2951 3 100 acctnote
12.5417 4 14 note
12.5417 9 1019 acctnote
13.2787 3 100 acctnote
14.3333 6 16 note
14.3333 9 19 note
15.2459 3 100 acctnote
16.1311 4 5 note
16.1311 5 6 note
16.2295 1 2 note
16.2295 3 1004 acctnote
16.2295 8 9 note
16.2302 6 1007 acctnote
16.291 9 1010 acctnote
16.3279 5 6 note
16.3934 2 1003 acctnote
16.3934 7 1008 acctnote
16.4146 6 7 note
17.7049 3 100 acctnote
17.9167 1 2001 acctnote
17.9167 6 2006 acctnote
19.1803 3 100 acctnote
19.7083 1 11 note
19.7083 8 18 note
20.6557 3 100 acctnote
21.5 4 2004 acctnote
21.5 8 1008 note
22.1311 3 100 acctnote
24.0984 3 100 acctnote
25.082 3 100 acctnote
26.6803 8 1009 note
26.7213 7 1008 note
26.7429 6 2007 acctnote
26.7541 4 1005 note
26.7541 5 1006 note
26.8033 1 2002 acctnote
26.8033 3 1004 note
26.8033 8 2009 acctnote
27.0492 3 100 acctnote
28.0328 3 100 acctnote
28.6667 4 1004 note
28.6667 8 1008 note
29.5082 3 100 acctnote
30.4583 6 16 note
30.4583 8 1018 acctnote
30.9836 3 100 acctnote
32.25 1 1001 note
32.25 5 1005 note
32.25 6 2006 acctnote
32.459 3 100 acctnote
33.9344 3 100 acctnote
34.0417 5 15 note
35.8333 3 1013 acctnote
35.8333 5 15 note
35.8333 8 18 note
36.8852 3 100 acctnote
37.625 6 16 note
37.625 8 18 note
38.8525 3 100 acctnote
39.4167 6 2006 acctnote
39.8361 3 100 acctnote
41.2083 8 18 note
41.3115 3 100 acctnote
42.7869 3 100 acctnote
