**** end: 0, start:70 (-70), reit: 8, offset:  0
        70
 43.262379	(-26.737621)
 26.737621	(-16.524758)
 16.524758	(-10.212862)
 10.212862	(-6.311896)
  6.311896	(-3.900966)
  3.900966	(-2.410930)
  2.410930	(-1.490037)
  1.490037	(-0.920893)
