#
metro|148.5
rhythm|6|8
#
#
# bar 212
#
1|8|||sonagli|p
4|16|||sonagli|p
#
# tremolo flute
#
1|8|12.05|8|01-03-f|f
=
#
# bar 213
#
4|16|||sonagli|p
=
#
# bar 214
#
4|16|||sonagli|p
#
# tremolo flute
#
1|8|12.05|8|03-23-mf|f
=
#
# bar 215
#
12|16|||gcassa|p
=
#
# bar 216
#
5|8|||gcassa|p
#
# tremolo flute
#
1|8|12.05|8|12-16-mf|f
=
#
# bar 217
#
2|8|||gcassa|p
=
#
# bar 218
#
8|16|||gcassa|p
#
# tremolo flute
#
1|8|6.05|8|03-26-pp|f
=
#
# bar 219
#
2|8|||gcassa|p
5|8|6|8|trem,sorfflo,sorfflo|pp
#
# tremolo flute
#
1|8|6.05|8|01-11-mp|f
=
#
# bar 220
#
9|16|||gcassa|mp
10|16|||sorfflo|pp
10|16|||sonagli|f
#
# tremolo flute
#
1|8|6|8|03-07-mf|f
=
#
# bar 221
#
4|16|||crash|f
10|16|1|8|crash|ff
12|16|1|8|crash|pp
#
# tremolo flute
#
1|8|30|8|01-12-mf|f
=
#
# bar 222
#
2|16|||sorfflo|pp
4|16|1|8|crash|ff
5|8|||sizzle|fff
6|8|||crash|pp
=
#
# bar 223
#
2|16|||tomlo|p
6|16|||sizzle|p
8|16|1|8|crash|pp
=
#
# bar 224
#
2|16|||tomhi|p
2|8|1|8|crash|ff
5|16|3|16|crash|pp
6|16|||gcassa|f
8|16|||sonagli|p
5|8|||crash|ff
5|8|||sizzle|p
=
#
# bar 225
#
4|16|||sorfflo|pp
4|8|||gcassa|p
5|8|||sizzle|mp
12|16|||tblocksmd|pp
=
#
# bar 226
#
1|8|||sorfflo|pp
1|8|1|8|crash|pp
3|16|1|8|crash|ff
4|16|||tomhi|p
3|8|1|8|crash|pp
8|16|||tblockshi|pp
8|16|||sonagli|p
10|16|||gcassa|p
10|16|||tomhi|p
12|16|||tblockslo|pp
#
# tremolo flute
#
1|8|52|8|03-07-mf|f
=
#
# bar 227
#
2|16|||crash|pp
3|8|||sorfflo|pp
7|16|||tamb|f
8|16|1|8|crash|ff
9|16|||sizzle|p
10|16|||crash|pp
=
#
# bar 228
#
1|12|||gcassa|p
1.8|12|||sorfflo|pp
1.9|12|||tomhi|f
2|12|||crash|ff
3|12|||sizzle|p
4|8|||tamb|mf
10|16|||tomhi|p
=
#
# bar 229
#
1|8|||tamb|ff
5|16|||tamb|pp
5.8|16|||sorfflo|pp
5.9|16|||tomhi|pp
11|32|||crash|p
12|32|||snare|fff
7|16|||tamb|pp
8|16|1|8|crash|ff
9|16|||sizzle|p
10|16|||crash|pp
=
#
# bar 230
#
2|8|||sorfflo|pp
11|40|||snare|p
15|40|||snare|p
7|16|||tamb|pp
7|16|||crash|f
8|16|||sizzle|fff
5|8|||tamb|pp
6|8|||incu|f
=
#
# bar 231
#
1|8|||tamb|ff
1|8|1|8|crash|f
3|16|||crash|pp
4|16|||gcassa|mp
3|8|||sizzle|mp
4|8|||sorfflo|pp
4|8|1|8|crash|pp
=
#
# bar 232
#
6|8|1|8|crash|pp
=
#
# bar 233
#
1|16|1|8|crash|ff
2|16|||tblocksmd|pp
2|8|||crash|pp
3|8|||tamb|f
8|16|||sorfflo|pp
8|16|||sizzle|p
11|16|||tamb|ff
12|16|||crash|f
=
#
# bar 234
#
2|16|||sonagli|f
2|8|||tamb|pp
2.8|8|||tamb|pp
2.9|8|||sorfflo|pp
5|16|||snare|p
6|16|1|8|crash|ff
8|16|||crash|pp
8|16|||sizzle|mp
11|16|||incu|pp
12|16|||crash|ff
=
#
# bar 235
#
2|16|||tomhi|p
3|8|||tamb|pp
3|8|||snare|p
15|40|||snare|p
4|8|||tamb|pp
9|16|||sorfflo|pp
10|16|||tomhi|ff
10.8|16|||snare|p
10.9|16|||tamb|mf
6|8|||incu|f
=
#
# bar 236
#
1|8|||incu|p
1|8|||gcassa|f
3|16|||incu|p
4|16|1|8|crash|pp
5|16|||snare|p
6|16|||sorfflo|pp
6|16|1|8|crash|fff
15|40|||snare|p
8|16|1|8|crash|pp
8|16|1|8|sizzle|p
=
#
# bar 237
#
1.8|16|||sizzle|p
1.9|16|||tomhi|p
2|16|||gcassa|p
2|8|||incu|p
2|8|||tamb|f
3|8|||incu|p
3|8|1|8|crash|f
9|16|||sonagli|p
10|16|||sorfflo|pp
10.8|16|||incu|p
10.9|16|||tomhi|f
11|16|||crash|ff
12|16|||sonagli|p
=
#
# bar 238
#
1|8|||incu|p
1|8|1|4|crash|pp
3|16|||tamb|f
4|16|||tblockshi|pp
4.8|16|||incu|p
4.9|16|||gcassa|f
3|8|||crash|ff
7|16|||sorfflo|pp
8|16|||sizzle|p
5|8|||tamb|ff
12|16|||tblockslo|pp
12|16|||sonagli|p
=
#
# bar 239
#
1|8|||tamb|pp
3|16|||tamb|pp
4|16|||tblocksmd|pp
7|16|||sizzle|fff
8|16|||gcassa|p
9|16|1|8|crash|pp
9.9|16|||snare|fff
10|16|||tomhi|p
6|8|||sorfflo|p
6|8|1|8|crash|ff
=
#
# bar 240
#
1|8|||crash|pp
3|16|||tamb|pp
4|16|||sizzle|p
3|8|||tamb|pp
3|8|||gcassa|p
8|16|||sorfflo|pp
8|16|||snare|p
9|16|||tamb|f
9.9|16|||snare|p
10|16|||crash|f
12|16|||sonagli|p
=
#
# bar 241
#
2|16|||tomhi|p
4|16|1|8|crash|ff
4|16|||sizzle|p
6|16|1|8|crash|pp
10|16|||crash|ff
12|16|||sorfflo|pp
=
